%YAML 1.1
%TAG !u! tag:unity3d.com,2011:
--- !u!29 &1
OcclusionCullingSettings:
  m_ObjectHideFlags: 0
  serializedVersion: 2
  m_OcclusionBakeSettings:
    smallestOccluder: 5
    smallestHole: 0.25
    backfaceThreshold: 100
  m_SceneGUID: 00000000000000000000000000000000
  m_OcclusionCullingData: {fileID: 0}
--- !u!104 &2
RenderSettings:
  m_ObjectHideFlags: 0
  serializedVersion: 8
  m_Fog: 0
  m_FogColor: {r: 0.5, g: 0.5, b: 0.5, a: 1}
  m_FogMode: 3
  m_FogDensity: 0.01
  m_LinearFogStart: 0
  m_LinearFogEnd: 300
  m_AmbientSkyColor: {r: 0, g: 0, b: 0, a: 1}
  m_AmbientEquatorColor: {r: 0, g: 0, b: 0, a: 1}
  m_AmbientGroundColor: {r: 0, g: 0, b: 0, a: 1}
  m_AmbientIntensity: 1
  m_AmbientMode: 3
  m_SubtractiveShadowColor: {r: 0.42, g: 0.478, b: 0.627, a: 1}
  m_SkyboxMaterial: {fileID: 0}
  m_HaloStrength: 0.5
  m_FlareStrength: 1
  m_FlareFadeSpeed: 3
  m_HaloTexture: {fileID: 0}
  m_SpotCookie: {fileID: 10001, guid: 0000000000000000e000000000000000, type: 0}
  m_DefaultReflectionMode: 0
  m_DefaultReflectionResolution: 128
  m_ReflectionBounces: 1
  m_ReflectionIntensity: 1
  m_CustomReflection: {fileID: 0}
  m_Sun: {fileID: 0}
  m_IndirectSpecularColor: {r: 0, g: 0, b: 0, a: 1}
--- !u!157 &4
LightmapSettings:
  m_ObjectHideFlags: 0
  serializedVersion: 11
  m_GIWorkflowMode: 1
  m_GISettings:
    serializedVersion: 2
    m_BounceScale: 1
    m_IndirectOutputScale: 1
    m_AlbedoBoost: 1
    m_TemporalCoherenceThreshold: 1
    m_EnvironmentLightingMode: 0
    m_EnableBakedLightmaps: 1
    m_EnableRealtimeLightmaps: 0
  m_LightmapEditorSettings:
    serializedVersion: 9
    m_Resolution: 1
    m_BakeResolution: 50
    m_TextureWidth: 1024
    m_TextureHeight: 1024
    m_AO: 0
    m_AOMaxDistance: 1
    m_CompAOExponent: 0
    m_CompAOExponentDirect: 0
    m_Padding: 2
    m_LightmapParameters: {fileID: 0}
    m_LightmapsBakeMode: 1
    m_TextureCompression: 0
    m_FinalGather: 0
    m_FinalGatherFiltering: 1
    m_FinalGatherRayCount: 1024
    m_ReflectionCompression: 2
    m_MixedBakeMode: 1
    m_BakeBackend: 0
    m_PVRSampling: 1
    m_PVRDirectSampleCount: 32
    m_PVRSampleCount: 500
    m_PVRBounces: 2
    m_PVRFilterTypeDirect: 0
    m_PVRFilterTypeIndirect: 0
    m_PVRFilterTypeAO: 0
    m_PVRFilteringMode: 1
    m_PVRCulling: 1
    m_PVRFilteringGaussRadiusDirect: 1
    m_PVRFilteringGaussRadiusIndirect: 5
    m_PVRFilteringGaussRadiusAO: 2
    m_PVRFilteringAtrousPositionSigmaDirect: 0.5
    m_PVRFilteringAtrousPositionSigmaIndirect: 2
    m_PVRFilteringAtrousPositionSigmaAO: 1
    m_ShowResolutionOverlay: 1
  m_LightingDataAsset: {fileID: 0}
  m_UseShadowmask: 1
--- !u!196 &5
NavMeshSettings:
  serializedVersion: 2
  m_ObjectHideFlags: 0
  m_BuildSettings:
    serializedVersion: 2
    agentTypeID: 0
    agentRadius: 0.5
    agentHeight: 2
    agentSlope: 45
    agentClimb: 0.4
    ledgeDropHeight: 0
    maxJumpAcrossDistance: 0
    minRegionArea: 2
    manualCellSize: 0
    cellSize: 0.16666666
    manualTileSize: 0
    tileSize: 256
    accuratePlacement: 0
    debug:
      m_Flags: 0
  m_NavMeshData: {fileID: 0}
--- !u!1 &6216685
GameObject:
  m_ObjectHideFlags: 0
  m_PrefabParentObject: {fileID: 159920, guid: f02a055bd6b8c1343ab2310b439da7d0, type: 2}
  m_PrefabInternal: {fileID: 754809613}
  serializedVersion: 5
  m_Component:
  - component: {fileID: 6216686}
  m_Layer: 0
  m_Name: B_R_Finger42
  m_TagString: Untagged
  m_Icon: {fileID: 0}
  m_NavMeshLayer: 0
  m_StaticEditorFlags: 0
  m_IsActive: 1
--- !u!4 &6216686
Transform:
  m_ObjectHideFlags: 0
  m_PrefabParentObject: {fileID: 459920, guid: f02a055bd6b8c1343ab2310b439da7d0, type: 2}
  m_PrefabInternal: {fileID: 754809613}
  m_GameObject: {fileID: 6216685}
  m_LocalRotation: {x: 0.000000010694469, y: -0.000000068767555, z: -0.11640201, w: 0.9932022}
  m_LocalPosition: {x: -0.061423566, y: 0.0000001335144, z: -0.000000095367426}
  m_LocalScale: {x: 0.99999994, y: 1, z: 0.9999999}
  m_Children: []
  m_Father: {fileID: 1940083602}
  m_RootOrder: 0
  m_LocalEulerAnglesHint: {x: 0, y: 0, z: 0}
--- !u!1 &14222702
GameObject:
  m_ObjectHideFlags: 0
  m_PrefabParentObject: {fileID: 159858, guid: f02a055bd6b8c1343ab2310b439da7d0, type: 2}
  m_PrefabInternal: {fileID: 754809613}
  serializedVersion: 5
  m_Component:
  - component: {fileID: 14222703}
  m_Layer: 0
  m_Name: B_L_Finger1
  m_TagString: Untagged
  m_Icon: {fileID: 0}
  m_NavMeshLayer: 0
  m_StaticEditorFlags: 0
  m_IsActive: 1
--- !u!4 &14222703
Transform:
  m_ObjectHideFlags: 0
  m_PrefabParentObject: {fileID: 459866, guid: f02a055bd6b8c1343ab2310b439da7d0, type: 2}
  m_PrefabInternal: {fileID: 754809613}
  m_GameObject: {fileID: 14222702}
  m_LocalRotation: {x: -0.00039816316, y: 1.4832728e-12, z: -0.0000000037252887, w: 0.99999994}
  m_LocalPosition: {x: -0.1715763, y: -0.034993134, z: -0.059923038}
  m_LocalScale: {x: 1.0000004, y: 1.0000002, z: 0.99999976}
  m_Children:
  - {fileID: 2058889069}
  m_Father: {fileID: 820790638}
  m_RootOrder: 1
  m_LocalEulerAnglesHint: {x: 0, y: 0, z: 0}
--- !u!1 &69557393
GameObject:
  m_ObjectHideFlags: 0
  m_PrefabParentObject: {fileID: 159904, guid: f02a055bd6b8c1343ab2310b439da7d0, type: 2}
  m_PrefabInternal: {fileID: 754809613}
  serializedVersion: 5
  m_Component:
  - component: {fileID: 69557394}
  m_Layer: 0
  m_Name: B_R_Finger2
  m_TagString: Untagged
  m_Icon: {fileID: 0}
  m_NavMeshLayer: 0
  m_StaticEditorFlags: 0
  m_IsActive: 1
--- !u!4 &69557394
Transform:
  m_ObjectHideFlags: 0
  m_PrefabParentObject: {fileID: 459904, guid: f02a055bd6b8c1343ab2310b439da7d0, type: 2}
  m_PrefabInternal: {fileID: 754809613}
  m_GameObject: {fileID: 69557393}
  m_LocalRotation: {x: 0.0003981362, y: -0.00000005960909, z: -0.00000001115214, w: 0.99999994}
  m_LocalPosition: {x: -0.1715766, y: -0.034960784, z: 0.019497499}
  m_LocalScale: {x: 1, y: 1.0000001, z: 0.99999994}
  m_Children:
  - {fileID: 1821818536}
  m_Father: {fileID: 516431967}
  m_RootOrder: 2
  m_LocalEulerAnglesHint: {x: 0, y: 0, z: 0}
--- !u!1 &81818577
GameObject:
  m_ObjectHideFlags: 0
  m_PrefabParentObject: {fileID: 189280, guid: 16dc4b51d7b30f74a9fd33417596daa7, type: 2}
  m_PrefabInternal: {fileID: 342983797}
  serializedVersion: 5
  m_Component:
  - component: {fileID: 81818578}
  - component: {fileID: 81818579}
  m_Layer: 1
  m_Name: Controls3
  m_TagString: Untagged
  m_Icon: {fileID: 0}
  m_NavMeshLayer: 0
  m_StaticEditorFlags: 0
  m_IsActive: 1
--- !u!4 &81818578
Transform:
  m_ObjectHideFlags: 0
  m_PrefabParentObject: {fileID: 489280, guid: 16dc4b51d7b30f74a9fd33417596daa7, type: 2}
  m_PrefabInternal: {fileID: 342983797}
  m_GameObject: {fileID: 81818577}
  m_LocalRotation: {x: 0.0000002415739, y: 0.00000022335256, z: -0.00000039155222,
    w: 1}
  m_LocalPosition: {x: 0, y: -1.26, z: 0}
  m_LocalScale: {x: 1, y: 1, z: 1}
  m_Children: []
  m_Father: {fileID: 1116778894}
  m_RootOrder: 1
  m_LocalEulerAnglesHint: {x: 0, y: 0, z: 0}
--- !u!212 &81818579
SpriteRenderer:
  m_ObjectHideFlags: 0
  m_PrefabParentObject: {fileID: 21289284, guid: 16dc4b51d7b30f74a9fd33417596daa7,
    type: 2}
  m_PrefabInternal: {fileID: 342983797}
  m_GameObject: {fileID: 81818577}
  m_Enabled: 1
  m_CastShadows: 0
  m_ReceiveShadows: 0
  m_DynamicOccludee: 1
  m_MotionVectors: 1
  m_LightProbeUsage: 0
  m_ReflectionProbeUsage: 1
  m_Materials:
  - {fileID: 10754, guid: 0000000000000000f000000000000000, type: 0}
  m_StaticBatchInfo:
    firstSubMesh: 0
    subMeshCount: 0
  m_StaticBatchRoot: {fileID: 0}
  m_ProbeAnchor: {fileID: 0}
  m_LightProbeVolumeOverride: {fileID: 0}
  m_ScaleInLightmap: 1
  m_PreserveUVs: 0
  m_IgnoreNormalsForChartDetection: 0
  m_ImportantGI: 0
  m_StitchLightmapSeams: 0
  m_SelectedEditorRenderState: 0
  m_MinimumChartSize: 4
  m_AutoUVMaxDistance: 0.5
  m_AutoUVMaxAngle: 89
  m_LightmapParameters: {fileID: 0}
  m_SortingLayerID: 0
  m_SortingLayer: 0
  m_SortingOrder: 0
  m_Sprite: {fileID: 21300000, guid: 8e5cb6b13e58cec42abfc161955e73b8, type: 3}
  m_Color: {r: 1, g: 1, b: 1, a: 1}
  m_FlipX: 0
  m_FlipY: 0
  m_DrawMode: 0
  m_Size: {x: 1, y: 1}
  m_AdaptiveModeThreshold: 0.5
  m_SpriteTileMode: 0
  m_WasSpriteAssigned: 1
  m_MaskInteraction: 0
--- !u!1 &90324905
GameObject:
  m_ObjectHideFlags: 0
  m_PrefabParentObject: {fileID: 173706, guid: f02a055bd6b8c1343ab2310b439da7d0, type: 2}
  m_PrefabInternal: {fileID: 754809613}
  serializedVersion: 5
  m_Component:
  - component: {fileID: 90324906}
  - component: {fileID: 90324907}
  m_Layer: 0
  m_Name: Mesh-Crossbow
  m_TagString: Untagged
  m_Icon: {fileID: 0}
  m_NavMeshLayer: 0
  m_StaticEditorFlags: 0
  m_IsActive: 1
--- !u!4 &90324906
Transform:
  m_ObjectHideFlags: 0
  m_PrefabParentObject: {fileID: 473706, guid: f02a055bd6b8c1343ab2310b439da7d0, type: 2}
  m_PrefabInternal: {fileID: 754809613}
  m_GameObject: {fileID: 90324905}
  m_LocalRotation: {x: -0.7071068, y: 0, z: -0, w: 0.7071068}
  m_LocalPosition: {x: 0, y: 0, z: 0}
  m_LocalScale: {x: 1, y: 1, z: 1}
  m_Children: []
  m_Father: {fileID: 1076699320}
  m_RootOrder: 0
  m_LocalEulerAnglesHint: {x: 0, y: 0, z: 0}
--- !u!137 &90324907
SkinnedMeshRenderer:
  m_ObjectHideFlags: 0
  m_PrefabParentObject: {fileID: 13773716, guid: f02a055bd6b8c1343ab2310b439da7d0,
    type: 2}
  m_PrefabInternal: {fileID: 754809613}
  m_GameObject: {fileID: 90324905}
  m_Enabled: 1
  m_CastShadows: 1
  m_ReceiveShadows: 1
  m_DynamicOccludee: 1
  m_MotionVectors: 1
  m_LightProbeUsage: 0
  m_ReflectionProbeUsage: 1
  m_Materials:
  - {fileID: 2100000, guid: 4c57ae33a72fa6842bafed60410cd603, type: 2}
  m_StaticBatchInfo:
    firstSubMesh: 0
    subMeshCount: 0
  m_StaticBatchRoot: {fileID: 0}
  m_ProbeAnchor: {fileID: 0}
  m_LightProbeVolumeOverride: {fileID: 0}
  m_ScaleInLightmap: 1
  m_PreserveUVs: 0
  m_IgnoreNormalsForChartDetection: 0
  m_ImportantGI: 0
  m_StitchLightmapSeams: 0
  m_SelectedEditorRenderState: 3
  m_MinimumChartSize: 4
  m_AutoUVMaxDistance: 0.5
  m_AutoUVMaxAngle: 89
  m_LightmapParameters: {fileID: 0}
  m_SortingLayerID: 0
  m_SortingLayer: 0
  m_SortingOrder: 0
  serializedVersion: 2
  m_Quality: 0
  m_UpdateWhenOffscreen: 0
  m_SkinnedMotionVectors: 1
  m_Mesh: {fileID: 4300018, guid: 8745dcecb0eafec409964dd1f0b7bb67, type: 3}
  m_Bones:
  - {fileID: 1827462011}
  - {fileID: 536710770}
  - {fileID: 1266728197}
  - {fileID: 575285931}
  - {fileID: 2018958717}
  - {fileID: 976089109}
  - {fileID: 415963723}
  - {fileID: 113317761}
  - {fileID: 1563958418}
  - {fileID: 6216686}
  - {fileID: 1862236460}
  - {fileID: 2082867929}
  - {fileID: 750343595}
  - {fileID: 1826726362}
  - {fileID: 1295502013}
  - {fileID: 1300850456}
  - {fileID: 219291681}
  - {fileID: 132769491}
  - {fileID: 305915628}
  - {fileID: 1698227774}
  - {fileID: 1138862110}
  - {fileID: 2021241144}
  - {fileID: 1890910321}
  - {fileID: 191571086}
  - {fileID: 516431967}
  - {fileID: 820790638}
  - {fileID: 1163758395}
  - {fileID: 707194507}
  - {fileID: 573003195}
  - {fileID: 1748034705}
  - {fileID: 1576337577}
  - {fileID: 2058889069}
  - {fileID: 1072217716}
  - {fileID: 1139671339}
  - {fileID: 14222703}
  - {fileID: 185212576}
  - {fileID: 819471226}
  - {fileID: 2136874022}
  - {fileID: 2083078774}
  - {fileID: 360690833}
  - {fileID: 69557394}
  - {fileID: 1940083602}
  - {fileID: 1992832833}
  - {fileID: 430609017}
  - {fileID: 1821818536}
  - {fileID: 281830819}
  - {fileID: 1074816109}
  - {fileID: 849972363}
  - {fileID: 1273763976}
  - {fileID: 1661504176}
  - {fileID: 1594346435}
  - {fileID: 2039450658}
  m_BlendShapeWeights: []
  m_RootBone: {fileID: 2082867929}
  m_AABB:
    m_Center: {x: -0.09332268, y: 0.0000005066395, z: 1.2211943}
    m_Extent: {x: 0.35928953, y: 0.5019624, z: 1.2402091}
  m_DirtyAABB: 0
--- !u!1 &113317760
GameObject:
  m_ObjectHideFlags: 0
  m_PrefabParentObject: {fileID: 159834, guid: f02a055bd6b8c1343ab2310b439da7d0, type: 2}
  m_PrefabInternal: {fileID: 754809613}
  serializedVersion: 5
  m_Component:
  - component: {fileID: 113317761}
  m_Layer: 0
  m_Name: B_R_Calf
  m_TagString: Untagged
  m_Icon: {fileID: 0}
  m_NavMeshLayer: 0
  m_StaticEditorFlags: 0
  m_IsActive: 1
--- !u!4 &113317761
Transform:
  m_ObjectHideFlags: 0
  m_PrefabParentObject: {fileID: 459832, guid: f02a055bd6b8c1343ab2310b439da7d0, type: 2}
  m_PrefabInternal: {fileID: 754809613}
  m_GameObject: {fileID: 113317760}
  m_LocalRotation: {x: 0.0000023773391, y: -0.00000018754649, z: 0.09983331, w: 0.9950042}
  m_LocalPosition: {x: -0.55950487, y: 0.000000009536743, z: 0.000000019073486}
  m_LocalScale: {x: 1.0000002, y: 1.0000002, z: 1}
  m_Children:
  - {fileID: 1826726362}
  m_Father: {fileID: 1266728197}
  m_RootOrder: 0
  m_LocalEulerAnglesHint: {x: 0, y: 0, z: 0}
--- !u!1 &132769490
GameObject:
  m_ObjectHideFlags: 0
  m_PrefabParentObject: {fileID: 159882, guid: f02a055bd6b8c1343ab2310b439da7d0, type: 2}
  m_PrefabInternal: {fileID: 754809613}
  serializedVersion: 5
  m_Component:
  - component: {fileID: 132769491}
  m_Layer: 0
  m_Name: B_Neck
  m_TagString: Untagged
  m_Icon: {fileID: 0}
  m_NavMeshLayer: 0
  m_StaticEditorFlags: 0
  m_IsActive: 1
--- !u!4 &132769491
Transform:
  m_ObjectHideFlags: 0
  m_PrefabParentObject: {fileID: 459846, guid: f02a055bd6b8c1343ab2310b439da7d0, type: 2}
  m_PrefabInternal: {fileID: 754809613}
  m_GameObject: {fileID: 132769490}
  m_LocalRotation: {x: -0.0000004768159, y: -3.910935e-14, z: -0.00000008213101, w: 1}
  m_LocalPosition: {x: -0.29094252, y: -0.00010208949, z: -1.857954e-10}
  m_LocalScale: {x: 1, y: 1, z: 1}
  m_Children:
  - {fileID: 305915628}
  m_Father: {fileID: 1594346435}
  m_RootOrder: 1
  m_LocalEulerAnglesHint: {x: 0, y: 0, z: 0}
--- !u!1 &182712000
GameObject:
  m_ObjectHideFlags: 0
  m_PrefabParentObject: {fileID: 173704, guid: f02a055bd6b8c1343ab2310b439da7d0, type: 2}
  m_PrefabInternal: {fileID: 754809613}
  serializedVersion: 5
  m_Component:
  - component: {fileID: 182712001}
  - component: {fileID: 182712003}
  - component: {fileID: 182712002}
  m_Layer: 0
  m_Name: Crossbow
  m_TagString: Untagged
  m_Icon: {fileID: 0}
  m_NavMeshLayer: 0
  m_StaticEditorFlags: 0
  m_IsActive: 1
--- !u!4 &182712001
Transform:
  m_ObjectHideFlags: 0
  m_PrefabParentObject: {fileID: 473704, guid: f02a055bd6b8c1343ab2310b439da7d0, type: 2}
  m_PrefabInternal: {fileID: 754809613}
  m_GameObject: {fileID: 182712000}
  m_LocalRotation: {x: -0.00000044485813, y: 0.0000005198644, z: -0.0000001965194,
    w: -1}
  m_LocalPosition: {x: -0, y: -0, z: 0}
  m_LocalScale: {x: 1, y: 1, z: 1}
  m_Children: []
  m_Father: {fileID: 516431967}
  m_RootOrder: 5
  m_LocalEulerAnglesHint: {x: 0, y: 0, z: 0}
--- !u!23 &182712002
MeshRenderer:
  m_ObjectHideFlags: 0
  m_PrefabParentObject: {fileID: 2373718, guid: f02a055bd6b8c1343ab2310b439da7d0,
    type: 2}
  m_PrefabInternal: {fileID: 754809613}
  m_GameObject: {fileID: 182712000}
  m_Enabled: 1
  m_CastShadows: 1
  m_ReceiveShadows: 1
  m_DynamicOccludee: 1
  m_MotionVectors: 1
  m_LightProbeUsage: 0
  m_ReflectionProbeUsage: 1
  m_Materials:
  - {fileID: 2100000, guid: 4c57ae33a72fa6842bafed60410cd603, type: 2}
  m_StaticBatchInfo:
    firstSubMesh: 0
    subMeshCount: 0
  m_StaticBatchRoot: {fileID: 0}
  m_ProbeAnchor: {fileID: 0}
  m_LightProbeVolumeOverride: {fileID: 0}
  m_ScaleInLightmap: 1
  m_PreserveUVs: 0
  m_IgnoreNormalsForChartDetection: 0
  m_ImportantGI: 0
  m_StitchLightmapSeams: 0
  m_SelectedEditorRenderState: 3
  m_MinimumChartSize: 4
  m_AutoUVMaxDistance: 0.5
  m_AutoUVMaxAngle: 89
  m_LightmapParameters: {fileID: 0}
  m_SortingLayerID: 0
  m_SortingLayer: 0
  m_SortingOrder: 0
--- !u!33 &182712003
MeshFilter:
  m_ObjectHideFlags: 0
  m_PrefabParentObject: {fileID: 3373718, guid: f02a055bd6b8c1343ab2310b439da7d0,
    type: 2}
  m_PrefabInternal: {fileID: 754809613}
  m_GameObject: {fileID: 182712000}
  m_Mesh: {fileID: 4300020, guid: 8745dcecb0eafec409964dd1f0b7bb67, type: 3}
--- !u!1 &185212575
GameObject:
  m_ObjectHideFlags: 0
  m_PrefabParentObject: {fileID: 159862, guid: f02a055bd6b8c1343ab2310b439da7d0, type: 2}
  m_PrefabInternal: {fileID: 754809613}
  serializedVersion: 5
  m_Component:
  - component: {fileID: 185212576}
  m_Layer: 0
  m_Name: B_L_Finger12
  m_TagString: Untagged
  m_Icon: {fileID: 0}
  m_NavMeshLayer: 0
  m_StaticEditorFlags: 0
  m_IsActive: 1
--- !u!4 &185212576
Transform:
  m_ObjectHideFlags: 0
  m_PrefabParentObject: {fileID: 459870, guid: f02a055bd6b8c1343ab2310b439da7d0, type: 2}
  m_PrefabInternal: {fileID: 754809613}
  m_GameObject: {fileID: 185212575}
  m_LocalRotation: {x: 0.0000001563813, y: -0.000000025829262, z: -0.116402015, w: 0.9932022}
  m_LocalPosition: {x: -0.073707804, y: -0.00000017166137, z: -0.0000002479553}
  m_LocalScale: {x: 0.99999994, y: 1, z: 0.99999994}
  m_Children: []
  m_Father: {fileID: 2058889069}
  m_RootOrder: 0
  m_LocalEulerAnglesHint: {x: 0, y: 0, z: 0}
--- !u!1 &191571085
GameObject:
  m_ObjectHideFlags: 0
  m_PrefabParentObject: {fileID: 159890, guid: f02a055bd6b8c1343ab2310b439da7d0, type: 2}
  m_PrefabInternal: {fileID: 754809613}
  serializedVersion: 5
  m_Component:
  - component: {fileID: 191571086}
  m_Layer: 0
  m_Name: B_R_Forearm
  m_TagString: Untagged
  m_Icon: {fileID: 0}
  m_NavMeshLayer: 0
  m_StaticEditorFlags: 0
  m_IsActive: 1
--- !u!4 &191571086
Transform:
  m_ObjectHideFlags: 0
  m_PrefabParentObject: {fileID: 459854, guid: f02a055bd6b8c1343ab2310b439da7d0, type: 2}
  m_PrefabInternal: {fileID: 754809613}
  m_GameObject: {fileID: 191571085}
  m_LocalRotation: {x: 0.000000093587474, y: 0.000000028110009, z: 0.09983303, w: 0.99500424}
  m_LocalPosition: {x: -0.37960723, y: 0.000000038146972, z: 0.00000019073485}
  m_LocalScale: {x: 0.9999998, y: 0.99999994, z: 1.0000002}
  m_Children:
  - {fileID: 516431967}
  m_Father: {fileID: 2021241144}
  m_RootOrder: 0
  m_LocalEulerAnglesHint: {x: 0, y: 0, z: 0}
--- !u!1 &219291680
GameObject:
  m_ObjectHideFlags: 0
  m_PrefabParentObject: {fileID: 159844, guid: f02a055bd6b8c1343ab2310b439da7d0, type: 2}
  m_PrefabInternal: {fileID: 754809613}
  serializedVersion: 5
  m_Component:
  - component: {fileID: 219291681}
  m_Layer: 0
  m_Name: B_L_Clavicle
  m_TagString: Untagged
  m_Icon: {fileID: 0}
  m_NavMeshLayer: 0
  m_StaticEditorFlags: 0
  m_IsActive: 1
--- !u!4 &219291681
Transform:
  m_ObjectHideFlags: 0
  m_PrefabParentObject: {fileID: 459850, guid: f02a055bd6b8c1343ab2310b439da7d0, type: 2}
  m_PrefabInternal: {fileID: 754809613}
  m_GameObject: {fileID: 219291680}
  m_LocalRotation: {x: 0.70710677, y: 0.00028154097, z: -0.70710677, w: 0.00028154097}
  m_LocalPosition: {x: -0.29094252, y: -0.00000010475516, z: 0.057713848}
  m_LocalScale: {x: 1, y: 1, z: 1}
  m_Children:
  - {fileID: 1138862110}
  m_Father: {fileID: 1594346435}
  m_RootOrder: 0
  m_LocalEulerAnglesHint: {x: 0, y: 0, z: 0}
--- !u!1 &281830818
GameObject:
  m_ObjectHideFlags: 0
  m_PrefabParentObject: {fileID: 159896, guid: f02a055bd6b8c1343ab2310b439da7d0, type: 2}
  m_PrefabInternal: {fileID: 754809613}
  serializedVersion: 5
  m_Component:
  - component: {fileID: 281830819}
  m_Layer: 0
  m_Name: B_R_Finger01
  m_TagString: Untagged
  m_Icon: {fileID: 0}
  m_NavMeshLayer: 0
  m_StaticEditorFlags: 0
  m_IsActive: 1
--- !u!4 &281830819
Transform:
  m_ObjectHideFlags: 0
  m_PrefabParentObject: {fileID: 459894, guid: f02a055bd6b8c1343ab2310b439da7d0, type: 2}
  m_PrefabInternal: {fileID: 754809613}
  m_GameObject: {fileID: 281830818}
  m_LocalRotation: {x: -0.000000014566279, y: 0.0000002117513, z: -0.11640206, w: 0.9932022}
  m_LocalPosition: {x: -0.06142326, y: -0.000000114440915, z: 0.000000076293944}
  m_LocalScale: {x: 0.9999999, y: 1.0000001, z: 1.0000001}
  m_Children:
  - {fileID: 1862236460}
  m_Father: {fileID: 1563958418}
  m_RootOrder: 0
  m_LocalEulerAnglesHint: {x: 0, y: 0, z: 0}
--- !u!1 &305915626
GameObject:
  m_ObjectHideFlags: 0
  m_PrefabParentObject: {fileID: 159884, guid: f02a055bd6b8c1343ab2310b439da7d0, type: 2}
  m_PrefabInternal: {fileID: 754809613}
  serializedVersion: 5
  m_Component:
  - component: {fileID: 305915628}
  - component: {fileID: 305915627}
  m_Layer: 0
  m_Name: B_Head
  m_TagString: Untagged
  m_Icon: {fileID: 0}
  m_NavMeshLayer: 0
  m_StaticEditorFlags: 0
  m_IsActive: 1
--- !u!54 &305915627
Rigidbody:
  m_ObjectHideFlags: 0
  m_PrefabParentObject: {fileID: 5483772, guid: f02a055bd6b8c1343ab2310b439da7d0,
    type: 2}
  m_PrefabInternal: {fileID: 754809613}
  m_GameObject: {fileID: 305915626}
  serializedVersion: 2
  m_Mass: 0.0000001
  m_Drag: 0
  m_AngularDrag: 0
  m_UseGravity: 0
  m_IsKinematic: 1
  m_Interpolate: 0
  m_Constraints: 0
  m_CollisionDetection: 0
--- !u!4 &305915628
Transform:
  m_ObjectHideFlags: 0
  m_PrefabParentObject: {fileID: 459848, guid: f02a055bd6b8c1343ab2310b439da7d0, type: 2}
  m_PrefabInternal: {fileID: 754809613}
  m_GameObject: {fileID: 305915626}
  m_LocalRotation: {x: 0.0000000297811, y: -0.0000000010923774, z: 0.00039887495,
    w: 0.99999994}
  m_LocalPosition: {x: -0.12820907, y: -0.000000020861625, z: 2.842171e-16}
  m_LocalScale: {x: 1, y: 1, z: 1}
  m_Children: []
  m_Father: {fileID: 132769491}
  m_RootOrder: 0
  m_LocalEulerAnglesHint: {x: 0, y: 0, z: 0}
--- !u!1001 &342983797
Prefab:
  m_ObjectHideFlags: 0
  serializedVersion: 2
  m_Modification:
    m_TransformParent: {fileID: 0}
    m_Modifications:
    - target: {fileID: 489288, guid: 16dc4b51d7b30f74a9fd33417596daa7, type: 2}
      propertyPath: m_LocalPosition.x
      value: 0
      objectReference: {fileID: 0}
    - target: {fileID: 489288, guid: 16dc4b51d7b30f74a9fd33417596daa7, type: 2}
      propertyPath: m_LocalPosition.y
      value: 7.03
      objectReference: {fileID: 0}
    - target: {fileID: 489288, guid: 16dc4b51d7b30f74a9fd33417596daa7, type: 2}
      propertyPath: m_LocalPosition.z
      value: -7.66
      objectReference: {fileID: 0}
    - target: {fileID: 489288, guid: 16dc4b51d7b30f74a9fd33417596daa7, type: 2}
      propertyPath: m_LocalRotation.x
      value: -0.38268334
      objectReference: {fileID: 0}
    - target: {fileID: 489288, guid: 16dc4b51d7b30f74a9fd33417596daa7, type: 2}
      propertyPath: m_LocalRotation.y
      value: 0.00000025696957
      objectReference: {fileID: 0}
    - target: {fileID: 489288, guid: 16dc4b51d7b30f74a9fd33417596daa7, type: 2}
      propertyPath: m_LocalRotation.z
      value: -0.00000010644025
      objectReference: {fileID: 0}
    - target: {fileID: 489288, guid: 16dc4b51d7b30f74a9fd33417596daa7, type: 2}
      propertyPath: m_LocalRotation.w
      value: -0.92387956
      objectReference: {fileID: 0}
    - target: {fileID: 489288, guid: 16dc4b51d7b30f74a9fd33417596daa7, type: 2}
      propertyPath: m_RootOrder
      value: 1
      objectReference: {fileID: 0}
    - target: {fileID: 11481238, guid: 16dc4b51d7b30f74a9fd33417596daa7, type: 2}
      propertyPath: target
      value: 
      objectReference: {fileID: 1076699320}
    - target: {fileID: 189288, guid: 16dc4b51d7b30f74a9fd33417596daa7, type: 2}
      propertyPath: m_Name
      value: Main Camera
      objectReference: {fileID: 0}
    - target: {fileID: 11481238, guid: 16dc4b51d7b30f74a9fd33417596daa7, type: 2}
      propertyPath: offSetX
      value: 0
      objectReference: {fileID: 0}
    - target: {fileID: 11481238, guid: 16dc4b51d7b30f74a9fd33417596daa7, type: 2}
      propertyPath: LockZ
      value: 0
      objectReference: {fileID: 0}
    - target: {fileID: 11481238, guid: 16dc4b51d7b30f74a9fd33417596daa7, type: 2}
      propertyPath: offSetY
      value: 6
      objectReference: {fileID: 0}
    - target: {fileID: 11481238, guid: 16dc4b51d7b30f74a9fd33417596daa7, type: 2}
      propertyPath: LockX
      value: 0
      objectReference: {fileID: 0}
    - target: {fileID: 11481238, guid: 16dc4b51d7b30f74a9fd33417596daa7, type: 2}
      propertyPath: offSetZ
      value: -6
      objectReference: {fileID: 0}
    - target: {fileID: 11481238, guid: 16dc4b51d7b30f74a9fd33417596daa7, type: 2}
      propertyPath: LockY
      value: 1
      objectReference: {fileID: 0}
    m_RemovedComponents: []
  m_ParentPrefab: {fileID: 100100000, guid: 16dc4b51d7b30f74a9fd33417596daa7, type: 2}
  m_RootGameObject: {fileID: 2056460966}
  m_IsPrefabParent: 0
--- !u!1 &360690832
GameObject:
  m_ObjectHideFlags: 0
  m_PrefabParentObject: {fileID: 159912, guid: f02a055bd6b8c1343ab2310b439da7d0, type: 2}
  m_PrefabInternal: {fileID: 754809613}
  serializedVersion: 5
  m_Component:
  - component: {fileID: 360690833}
  m_Layer: 0
  m_Name: B_R_Finger31
  m_TagString: Untagged
  m_Icon: {fileID: 0}
  m_NavMeshLayer: 0
  m_StaticEditorFlags: 0
  m_IsActive: 1
--- !u!4 &360690833
Transform:
  m_ObjectHideFlags: 0
  m_PrefabParentObject: {fileID: 459912, guid: f02a055bd6b8c1343ab2310b439da7d0, type: 2}
  m_PrefabInternal: {fileID: 754809613}
  m_GameObject: {fileID: 360690832}
  m_LocalRotation: {x: 0.000000006851507, y: 0.000000070461965, z: -0.116402015, w: 0.9932022}
  m_LocalPosition: {x: -0.073707506, y: -0.000000076293944, z: 0}
  m_LocalScale: {x: 1.0000001, y: 1.0000001, z: 1.0000002}
  m_Children:
  - {fileID: 1661504176}
  m_Father: {fileID: 2083078774}
  m_RootOrder: 0
  m_LocalEulerAnglesHint: {x: 0, y: 0, z: 0}
--- !u!1 &415963722
GameObject:
  m_ObjectHideFlags: 0
  m_PrefabParentObject: {fileID: 159856, guid: f02a055bd6b8c1343ab2310b439da7d0, type: 2}
  m_PrefabInternal: {fileID: 754809613}
  serializedVersion: 5
  m_Component:
  - component: {fileID: 415963723}
  m_Layer: 0
  m_Name: B_L_Finger02
  m_TagString: Untagged
  m_Icon: {fileID: 0}
  m_NavMeshLayer: 0
  m_StaticEditorFlags: 0
  m_IsActive: 1
--- !u!4 &415963723
Transform:
  m_ObjectHideFlags: 0
  m_PrefabParentObject: {fileID: 459864, guid: f02a055bd6b8c1343ab2310b439da7d0, type: 2}
  m_PrefabInternal: {fileID: 754809613}
  m_GameObject: {fileID: 415963722}
  m_LocalRotation: {x: -0.000000060934, y: -0.000000007861759, z: -0.1164021, w: 0.9932022}
  m_LocalPosition: {x: -0.06142326, y: 0.000000019073486, z: 0.00000022888183}
  m_LocalScale: {x: 1.0000001, y: 0.99999994, z: 1}
  m_Children: []
  m_Father: {fileID: 1139671339}
  m_RootOrder: 0
  m_LocalEulerAnglesHint: {x: 0, y: 0, z: 0}
--- !u!1 &421388794
GameObject:
  m_ObjectHideFlags: 0
  m_PrefabParentObject: {fileID: 100000, guid: f02a055bd6b8c1343ab2310b439da7d0, type: 2}
  m_PrefabInternal: {fileID: 754809613}
  serializedVersion: 5
  m_Component:
  - component: {fileID: 1076699320}
  - component: {fileID: 421388796}
  - component: {fileID: 421388795}
  m_Layer: 0
  m_Name: Crossbow
  m_TagString: Untagged
  m_Icon: {fileID: 0}
  m_NavMeshLayer: 0
  m_StaticEditorFlags: 0
  m_IsActive: 1
--- !u!114 &421388795
MonoBehaviour:
  m_ObjectHideFlags: 0
  m_PrefabParentObject: {fileID: 11418434, guid: f02a055bd6b8c1343ab2310b439da7d0,
    type: 2}
  m_PrefabInternal: {fileID: 754809613}
  m_GameObject: {fileID: 421388794}
  m_Enabled: 1
  m_EditorHideFlags: 0
  m_Script: {fileID: 11500000, guid: 7f7ef17c21ec457409514db055acb92a, type: 3}
  m_Name: 
  m_EditorClassIdentifier: 
  animator: {fileID: 421388796}
  warrior: 11
--- !u!95 &421388796
Animator:
  serializedVersion: 3
  m_ObjectHideFlags: 0
  m_PrefabParentObject: {fileID: 9590292, guid: f02a055bd6b8c1343ab2310b439da7d0,
    type: 2}
  m_PrefabInternal: {fileID: 754809613}
  m_GameObject: {fileID: 421388794}
  m_Enabled: 1
  m_Avatar: {fileID: 9000000, guid: 8745dcecb0eafec409964dd1f0b7bb67, type: 3}
  m_Controller: {fileID: 9100000, guid: 35817b3626575dc4993f55490ba2f1aa, type: 2}
  m_CullingMode: 1
  m_UpdateMode: 0
  m_ApplyRootMotion: 1
  m_LinearVelocityBlending: 0
  m_WarningMessage: 
  m_HasTransformHierarchy: 1
  m_AllowConstantClipSamplingOptimization: 1
--- !u!1 &430609016
GameObject:
  m_ObjectHideFlags: 0
  m_PrefabParentObject: {fileID: 159902, guid: f02a055bd6b8c1343ab2310b439da7d0, type: 2}
  m_PrefabInternal: {fileID: 754809613}
  serializedVersion: 5
  m_Component:
  - component: {fileID: 430609017}
  m_Layer: 0
  m_Name: B_R_Finger11
  m_TagString: Untagged
  m_Icon: {fileID: 0}
  m_NavMeshLayer: 0
  m_StaticEditorFlags: 0
  m_IsActive: 1
--- !u!4 &430609017
Transform:
  m_ObjectHideFlags: 0
  m_PrefabParentObject: {fileID: 459900, guid: f02a055bd6b8c1343ab2310b439da7d0, type: 2}
  m_PrefabInternal: {fileID: 754809613}
  m_GameObject: {fileID: 430609016}
  m_LocalRotation: {x: 4.3494655e-10, y: 0.00000012372499, z: -0.11640196, w: 0.9932022}
  m_LocalPosition: {x: -0.07370773, y: 0, z: 0.000000076293944}
  m_LocalScale: {x: 1.0000002, y: 0.9999998, z: 1}
  m_Children:
  - {fileID: 849972363}
  m_Father: {fileID: 1074816109}
  m_RootOrder: 0
  m_LocalEulerAnglesHint: {x: 0, y: 0, z: 0}
--- !u!1 &516431966
GameObject:
  m_ObjectHideFlags: 0
  m_PrefabParentObject: {fileID: 159892, guid: f02a055bd6b8c1343ab2310b439da7d0, type: 2}
  m_PrefabInternal: {fileID: 754809613}
  serializedVersion: 5
  m_Component:
  - component: {fileID: 516431967}
  m_Layer: 0
  m_Name: B_R_Hand
  m_TagString: Untagged
  m_Icon: {fileID: 0}
  m_NavMeshLayer: 0
  m_StaticEditorFlags: 0
  m_IsActive: 1
--- !u!4 &516431967
Transform:
  m_ObjectHideFlags: 0
  m_PrefabParentObject: {fileID: 459890, guid: f02a055bd6b8c1343ab2310b439da7d0, type: 2}
  m_PrefabInternal: {fileID: 754809613}
  m_GameObject: {fileID: 516431966}
  m_LocalRotation: {x: 0.70682514, y: 0.00000008163955, z: 0.000000050081884, w: 0.70738834}
  m_LocalPosition: {x: -0.25447485, y: -0.000000057220458, z: -0.00000022888183}
  m_LocalScale: {x: 1.0000004, y: 0.99999994, z: 1.0000002}
  m_Children:
  - {fileID: 1563958418}
  - {fileID: 1074816109}
  - {fileID: 69557394}
  - {fileID: 2083078774}
  - {fileID: 1992832833}
  - {fileID: 182712001}
  m_Father: {fileID: 191571086}
  m_RootOrder: 0
  m_LocalEulerAnglesHint: {x: 0, y: 0, z: 0}
--- !u!1 &536710769
GameObject:
  m_ObjectHideFlags: 0
  m_PrefabParentObject: {fileID: 159822, guid: f02a055bd6b8c1343ab2310b439da7d0, type: 2}
  m_PrefabInternal: {fileID: 754809613}
  serializedVersion: 5
  m_Component:
  - component: {fileID: 536710770}
  m_Layer: 0
  m_Name: B_Pelvis
  m_TagString: Untagged
  m_Icon: {fileID: 0}
  m_NavMeshLayer: 0
  m_StaticEditorFlags: 0
  m_IsActive: 1
--- !u!4 &536710770
Transform:
  m_ObjectHideFlags: 0
  m_PrefabParentObject: {fileID: 459822, guid: f02a055bd6b8c1343ab2310b439da7d0, type: 2}
  m_PrefabInternal: {fileID: 754809613}
  m_GameObject: {fileID: 536710769}
  m_LocalRotation: {x: -0.49999964, y: 0.5000004, z: 0.49999964, w: 0.5000004}
  m_LocalPosition: {x: -0.0050410083, y: -0.000000016315786, z: 1.3066297}
  m_LocalScale: {x: 1, y: 1, z: 1}
  m_Children:
  - {fileID: 1827462011}
  - {fileID: 1266728197}
  - {fileID: 2039450658}
  m_Father: {fileID: 2082867929}
  m_RootOrder: 0
  m_LocalEulerAnglesHint: {x: 0, y: 0, z: 0}
--- !u!1 &564125252
GameObject:
  m_ObjectHideFlags: 0
  m_PrefabParentObject: {fileID: 173708, guid: f02a055bd6b8c1343ab2310b439da7d0, type: 2}
  m_PrefabInternal: {fileID: 754809613}
  serializedVersion: 5
  m_Component:
  - component: {fileID: 564125253}
  - component: {fileID: 564125255}
  - component: {fileID: 564125254}
  m_Layer: 0
  m_Name: Hair3
  m_TagString: Untagged
  m_Icon: {fileID: 0}
  m_NavMeshLayer: 0
  m_StaticEditorFlags: 0
  m_IsActive: 1
--- !u!4 &564125253
Transform:
  m_ObjectHideFlags: 0
  m_PrefabParentObject: {fileID: 473708, guid: f02a055bd6b8c1343ab2310b439da7d0, type: 2}
  m_PrefabInternal: {fileID: 754809613}
  m_GameObject: {fileID: 564125252}
  m_LocalRotation: {x: 0, y: -0, z: -0, w: 1}
  m_LocalPosition: {x: 0.27179077, y: 0.0000003445195, z: 0}
  m_LocalScale: {x: 1, y: 1, z: 1}
  m_Children: []
  m_Father: {fileID: 1396592378}
  m_RootOrder: 0
  m_LocalEulerAnglesHint: {x: 0, y: 0, z: 0}
--- !u!144 &564125254
CharacterJoint:
  m_ObjectHideFlags: 0
  m_PrefabParentObject: {fileID: 14473714, guid: f02a055bd6b8c1343ab2310b439da7d0,
    type: 2}
  m_PrefabInternal: {fileID: 754809613}
  m_GameObject: {fileID: 564125252}
  m_ConnectedBody: {fileID: 1396592379}
  m_Anchor: {x: 0, y: 0, z: 0}
  m_Axis: {x: 0, y: 1, z: 0}
  m_AutoConfigureConnectedAnchor: 1
  m_ConnectedAnchor: {x: 0.2717908, y: 0.00000037414142, z: -0.000000067055225}
  serializedVersion: 2
  m_SwingAxis: {x: 0, y: 0, z: 1}
  m_TwistLimitSpring:
    spring: 0
    damper: 0
  m_LowTwistLimit:
    limit: -60
    bounciness: 0
    contactDistance: 0
  m_HighTwistLimit:
    limit: 60
    bounciness: 0
    contactDistance: 0
  m_SwingLimitSpring:
    spring: 0
    damper: 0
  m_Swing1Limit:
    limit: 80
    bounciness: 0
    contactDistance: 0
  m_Swing2Limit:
    limit: 0
    bounciness: 0
    contactDistance: 0
  m_EnableProjection: 0
  m_ProjectionDistance: 0.1
  m_ProjectionAngle: 180
  m_BreakForce: Infinity
  m_BreakTorque: Infinity
  m_EnableCollision: 0
  m_EnablePreprocessing: 1
  m_MassScale: 1
  m_ConnectedMassScale: 1
--- !u!54 &564125255
Rigidbody:
  m_ObjectHideFlags: 0
  m_PrefabParentObject: {fileID: 5473714, guid: f02a055bd6b8c1343ab2310b439da7d0,
    type: 2}
  m_PrefabInternal: {fileID: 754809613}
  m_GameObject: {fileID: 564125252}
  serializedVersion: 2
  m_Mass: 50
  m_Drag: 1
  m_AngularDrag: 1
  m_UseGravity: 1
  m_IsKinematic: 0
  m_Interpolate: 0
  m_Constraints: 0
  m_CollisionDetection: 1
--- !u!1 &573003194
GameObject:
  m_ObjectHideFlags: 0
  m_PrefabParentObject: {fileID: 159864, guid: f02a055bd6b8c1343ab2310b439da7d0, type: 2}
  m_PrefabInternal: {fileID: 754809613}
  serializedVersion: 5
  m_Component:
  - component: {fileID: 573003195}
  m_Layer: 0
  m_Name: B_L_Finger2
  m_TagString: Untagged
  m_Icon: {fileID: 0}
  m_NavMeshLayer: 0
  m_StaticEditorFlags: 0
  m_IsActive: 1
--- !u!4 &573003195
Transform:
  m_ObjectHideFlags: 0
  m_PrefabParentObject: {fileID: 459872, guid: f02a055bd6b8c1343ab2310b439da7d0, type: 2}
  m_PrefabInternal: {fileID: 754809613}
  m_GameObject: {fileID: 573003194}
  m_LocalRotation: {x: -0.00039815757, y: 0.00000020484495, z: 0.000000115565555,
    w: 0.99999994}
  m_LocalPosition: {x: -0.17157653, y: -0.03496109, z: -0.019497441}
  m_LocalScale: {x: 1.0000001, y: 1.0000002, z: 0.99999994}
  m_Children:
  - {fileID: 1072217716}
  m_Father: {fileID: 820790638}
  m_RootOrder: 2
  m_LocalEulerAnglesHint: {x: 0, y: 0, z: 0}
--- !u!1 &575285930
GameObject:
  m_ObjectHideFlags: 0
  m_PrefabParentObject: {fileID: 159826, guid: f02a055bd6b8c1343ab2310b439da7d0, type: 2}
  m_PrefabInternal: {fileID: 754809613}
  serializedVersion: 5
  m_Component:
  - component: {fileID: 575285931}
  m_Layer: 0
  m_Name: B_L_Calf
  m_TagString: Untagged
  m_Icon: {fileID: 0}
  m_NavMeshLayer: 0
  m_StaticEditorFlags: 0
  m_IsActive: 1
--- !u!4 &575285931
Transform:
  m_ObjectHideFlags: 0
  m_PrefabParentObject: {fileID: 459828, guid: f02a055bd6b8c1343ab2310b439da7d0, type: 2}
  m_PrefabInternal: {fileID: 754809613}
  m_GameObject: {fileID: 575285930}
  m_LocalRotation: {x: -0.0000040043083, y: 0.00000030656216, z: 0.09983331, w: 0.9950042}
  m_LocalPosition: {x: -0.5595049, y: 0.000000009536743, z: 0.000000038146972}
  m_LocalScale: {x: 1.0000002, y: 1.0000002, z: 1}
  m_Children:
  - {fileID: 750343595}
  m_Father: {fileID: 1827462011}
  m_RootOrder: 0
  m_LocalEulerAnglesHint: {x: 0, y: 0, z: 0}
--- !u!1 &707194506
GameObject:
  m_ObjectHideFlags: 0
  m_PrefabParentObject: {fileID: 159872, guid: f02a055bd6b8c1343ab2310b439da7d0, type: 2}
  m_PrefabInternal: {fileID: 754809613}
  serializedVersion: 5
  m_Component:
  - component: {fileID: 707194507}
  m_Layer: 0
  m_Name: B_L_Finger31
  m_TagString: Untagged
  m_Icon: {fileID: 0}
  m_NavMeshLayer: 0
  m_StaticEditorFlags: 0
  m_IsActive: 1
--- !u!4 &707194507
Transform:
  m_ObjectHideFlags: 0
  m_PrefabParentObject: {fileID: 459880, guid: f02a055bd6b8c1343ab2310b439da7d0, type: 2}
  m_PrefabInternal: {fileID: 754809613}
  m_GameObject: {fileID: 707194506}
  m_LocalRotation: {x: -0.00000012079937, y: -0.00000009461531, z: -0.11640205, w: 0.9932022}
  m_LocalPosition: {x: -0.073707886, y: 0.00000015258789, z: 0}
  m_LocalScale: {x: 1, y: 0.99999976, z: 1.0000001}
  m_Children:
  - {fileID: 2136874022}
  m_Father: {fileID: 1163758395}
  m_RootOrder: 0
  m_LocalEulerAnglesHint: {x: 0, y: 0, z: 0}
--- !u!1 &750343594
GameObject:
  m_ObjectHideFlags: 0
  m_PrefabParentObject: {fileID: 159828, guid: f02a055bd6b8c1343ab2310b439da7d0, type: 2}
  m_PrefabInternal: {fileID: 754809613}
  serializedVersion: 5
  m_Component:
  - component: {fileID: 750343595}
  m_Layer: 0
  m_Name: B_L_Foot
  m_TagString: Untagged
  m_Icon: {fileID: 0}
  m_NavMeshLayer: 0
  m_StaticEditorFlags: 0
  m_IsActive: 1
--- !u!4 &750343595
Transform:
  m_ObjectHideFlags: 0
  m_PrefabParentObject: {fileID: 459830, guid: f02a055bd6b8c1343ab2310b439da7d0, type: 2}
  m_PrefabInternal: {fileID: 754809613}
  m_GameObject: {fileID: 750343594}
  m_LocalRotation: {x: 0.00000047264385, y: -0.000000048054105, z: -0.049979202, w: 0.99875027}
  m_LocalPosition: {x: -0.5595047, y: -0.000000009536743, z: -0.000000028610229}
  m_LocalScale: {x: 0.9999998, y: 0.9999997, z: 1}
  m_Children:
  - {fileID: 1295502013}
  m_Father: {fileID: 575285931}
  m_RootOrder: 0
  m_LocalEulerAnglesHint: {x: 0, y: 0, z: 0}
--- !u!1001 &754809613
Prefab:
  m_ObjectHideFlags: 0
  serializedVersion: 2
  m_Modification:
    m_TransformParent: {fileID: 0}
    m_Modifications:
    - target: {fileID: 400000, guid: f02a055bd6b8c1343ab2310b439da7d0, type: 2}
      propertyPath: m_LocalPosition.x
      value: 0
      objectReference: {fileID: 0}
    - target: {fileID: 400000, guid: f02a055bd6b8c1343ab2310b439da7d0, type: 2}
      propertyPath: m_LocalPosition.y
      value: 0
      objectReference: {fileID: 0}
    - target: {fileID: 400000, guid: f02a055bd6b8c1343ab2310b439da7d0, type: 2}
      propertyPath: m_LocalPosition.z
      value: -3
      objectReference: {fileID: 0}
    - target: {fileID: 400000, guid: f02a055bd6b8c1343ab2310b439da7d0, type: 2}
      propertyPath: m_LocalRotation.x
      value: 0
      objectReference: {fileID: 0}
    - target: {fileID: 400000, guid: f02a055bd6b8c1343ab2310b439da7d0, type: 2}
      propertyPath: m_LocalRotation.y
      value: 0
      objectReference: {fileID: 0}
    - target: {fileID: 400000, guid: f02a055bd6b8c1343ab2310b439da7d0, type: 2}
      propertyPath: m_LocalRotation.z
      value: 0
      objectReference: {fileID: 0}
    - target: {fileID: 400000, guid: f02a055bd6b8c1343ab2310b439da7d0, type: 2}
      propertyPath: m_LocalRotation.w
      value: 1
      objectReference: {fileID: 0}
    - target: {fileID: 400000, guid: f02a055bd6b8c1343ab2310b439da7d0, type: 2}
      propertyPath: m_RootOrder
      value: 0
      objectReference: {fileID: 0}
    - target: {fileID: 100000, guid: f02a055bd6b8c1343ab2310b439da7d0, type: 2}
      propertyPath: m_Name
      value: Crossbow
      objectReference: {fileID: 0}
    m_RemovedComponents: []
  m_ParentPrefab: {fileID: 100100000, guid: f02a055bd6b8c1343ab2310b439da7d0, type: 2}
  m_RootGameObject: {fileID: 421388794}
  m_IsPrefabParent: 0
--- !u!1 &819471225
GameObject:
  m_ObjectHideFlags: 0
  m_PrefabParentObject: {fileID: 159868, guid: f02a055bd6b8c1343ab2310b439da7d0, type: 2}
  m_PrefabInternal: {fileID: 754809613}
  serializedVersion: 5
  m_Component:
  - component: {fileID: 819471226}
  m_Layer: 0
  m_Name: B_L_Finger22
  m_TagString: Untagged
  m_Icon: {fileID: 0}
  m_NavMeshLayer: 0
  m_StaticEditorFlags: 0
  m_IsActive: 1
--- !u!4 &819471226
Transform:
  m_ObjectHideFlags: 0
  m_PrefabParentObject: {fileID: 459876, guid: f02a055bd6b8c1343ab2310b439da7d0, type: 2}
  m_PrefabInternal: {fileID: 754809613}
  m_GameObject: {fileID: 819471225}
  m_LocalRotation: {x: 0.000000005868123, y: 0.000000018066203, z: -0.11640198, w: 0.9932022}
  m_LocalPosition: {x: -0.08599251, y: 0.00000015258789, z: -0.000000047683713}
  m_LocalScale: {x: 0.9999999, y: 0.99999994, z: 1.0000001}
  m_Children: []
  m_Father: {fileID: 1072217716}
  m_RootOrder: 0
  m_LocalEulerAnglesHint: {x: 0, y: 0, z: 0}
--- !u!1 &820790637
GameObject:
  m_ObjectHideFlags: 0
  m_PrefabParentObject: {fileID: 159850, guid: f02a055bd6b8c1343ab2310b439da7d0, type: 2}
  m_PrefabInternal: {fileID: 754809613}
  serializedVersion: 5
  m_Component:
  - component: {fileID: 820790638}
  m_Layer: 0
  m_Name: B_L_Hand
  m_TagString: Untagged
  m_Icon: {fileID: 0}
  m_NavMeshLayer: 0
  m_StaticEditorFlags: 0
  m_IsActive: 1
--- !u!4 &820790638
Transform:
  m_ObjectHideFlags: 0
  m_PrefabParentObject: {fileID: 459858, guid: f02a055bd6b8c1343ab2310b439da7d0, type: 2}
  m_PrefabInternal: {fileID: 754809613}
  m_GameObject: {fileID: 820790637}
  m_LocalRotation: {x: -0.7068252, y: 0.00000004215104, z: 0.00000001051993, w: 0.7073883}
  m_LocalPosition: {x: -0.2544747, y: -0.000000057220458, z: -0.00000015258789}
  m_LocalScale: {x: 1, y: 0.9999999, z: 1.0000005}
  m_Children:
  - {fileID: 2018958717}
  - {fileID: 14222703}
  - {fileID: 573003195}
  - {fileID: 1163758395}
  - {fileID: 1576337577}
  m_Father: {fileID: 1890910321}
  m_RootOrder: 0
  m_LocalEulerAnglesHint: {x: 0, y: 0, z: 0}
--- !u!1 &849972362
GameObject:
  m_ObjectHideFlags: 0
  m_PrefabParentObject: {fileID: 159818, guid: f02a055bd6b8c1343ab2310b439da7d0, type: 2}
  m_PrefabInternal: {fileID: 754809613}
  serializedVersion: 5
  m_Component:
  - component: {fileID: 849972363}
  m_Layer: 0
  m_Name: B_R_Finger12
  m_TagString: Untagged
  m_Icon: {fileID: 0}
  m_NavMeshLayer: 0
  m_StaticEditorFlags: 0
  m_IsActive: 1
--- !u!4 &849972363
Transform:
  m_ObjectHideFlags: 0
  m_PrefabParentObject: {fileID: 459902, guid: f02a055bd6b8c1343ab2310b439da7d0, type: 2}
  m_PrefabInternal: {fileID: 754809613}
  m_GameObject: {fileID: 849972362}
  m_LocalRotation: {x: 0.00000002127347, y: -0.00000012251844, z: -0.11640208, w: 0.9932022}
  m_LocalPosition: {x: -0.07370773, y: -0.000000057220458, z: -0.000000114440915}
  m_LocalScale: {x: 1, y: 1.0000001, z: 0.99999976}
  m_Children: []
  m_Father: {fileID: 430609017}
  m_RootOrder: 0
  m_LocalEulerAnglesHint: {x: 0, y: 0, z: 0}
--- !u!1 &875673082
GameObject:
  m_ObjectHideFlags: 0
  m_PrefabParentObject: {fileID: 173718, guid: f02a055bd6b8c1343ab2310b439da7d0, type: 2}
  m_PrefabInternal: {fileID: 754809613}
  serializedVersion: 5
  m_Component:
  - component: {fileID: 875673083}
  m_Layer: 0
  m_Name: Crossbow-Hair
  m_TagString: Untagged
  m_Icon: {fileID: 0}
  m_NavMeshLayer: 0
  m_StaticEditorFlags: 0
  m_IsActive: 1
--- !u!4 &875673083
Transform:
  m_ObjectHideFlags: 0
  m_PrefabParentObject: {fileID: 473718, guid: f02a055bd6b8c1343ab2310b439da7d0, type: 2}
  m_PrefabInternal: {fileID: 754809613}
  m_GameObject: {fileID: 875673082}
  m_LocalRotation: {x: 0, y: 0, z: 0, w: 1}
  m_LocalPosition: {x: 0, y: 0, z: 0}
  m_LocalScale: {x: 1, y: 1, z: 1}
  m_Children:
  - {fileID: 1435057491}
  - {fileID: 1225135987}
  m_Father: {fileID: 1076699320}
  m_RootOrder: 2
  m_LocalEulerAnglesHint: {x: 0, y: 0, z: 0}
--- !u!1 &976089108
GameObject:
  m_ObjectHideFlags: 0
  m_PrefabParentObject: {fileID: 159880, guid: f02a055bd6b8c1343ab2310b439da7d0, type: 2}
  m_PrefabInternal: {fileID: 754809613}
  serializedVersion: 5
  m_Component:
  - component: {fileID: 976089109}
  m_Layer: 0
  m_Name: B_L_Finger42
  m_TagString: Untagged
  m_Icon: {fileID: 0}
  m_NavMeshLayer: 0
  m_StaticEditorFlags: 0
  m_IsActive: 1
--- !u!4 &976089109
Transform:
  m_ObjectHideFlags: 0
  m_PrefabParentObject: {fileID: 459888, guid: f02a055bd6b8c1343ab2310b439da7d0, type: 2}
  m_PrefabInternal: {fileID: 754809613}
  m_GameObject: {fileID: 976089108}
  m_LocalRotation: {x: 0.000000010640656, y: 0.0000002988159, z: -0.1164018, w: 0.9932022}
  m_LocalPosition: {x: -0.061423108, y: -0.00000020980835, z: -0.0000002002716}
  m_LocalScale: {x: 1, y: 1.0000001, z: 0.99999994}
  m_Children: []
  m_Father: {fileID: 1748034705}
  m_RootOrder: 0
  m_LocalEulerAnglesHint: {x: 0, y: 0, z: 0}
--- !u!1 &1042911049
GameObject:
  m_ObjectHideFlags: 0
  m_PrefabParentObject: {fileID: 189286, guid: 16dc4b51d7b30f74a9fd33417596daa7, type: 2}
  m_PrefabInternal: {fileID: 342983797}
  serializedVersion: 5
  m_Component:
  - component: {fileID: 1042911050}
  - component: {fileID: 1042911053}
  - component: {fileID: 1042911052}
  - component: {fileID: 1042911051}
  m_Layer: 0
  m_Name: GUI Camera
  m_TagString: Untagged
  m_Icon: {fileID: 0}
  m_NavMeshLayer: 0
  m_StaticEditorFlags: 0
  m_IsActive: 1
--- !u!4 &1042911050
Transform:
  m_ObjectHideFlags: 0
  m_PrefabParentObject: {fileID: 489286, guid: 16dc4b51d7b30f74a9fd33417596daa7, type: 2}
  m_PrefabInternal: {fileID: 342983797}
  m_GameObject: {fileID: 1042911049}
  m_LocalRotation: {x: 0, y: 0, z: 0, w: 1}
  m_LocalPosition: {x: 0, y: 0, z: 0}
  m_LocalScale: {x: 1, y: 1, z: 1}
  m_Children:
  - {fileID: 1116778894}
  m_Father: {fileID: 2056460972}
  m_RootOrder: 0
  m_LocalEulerAnglesHint: {x: 0, y: 0, z: 0}
--- !u!124 &1042911051
Behaviour:
  m_ObjectHideFlags: 0
  m_PrefabParentObject: {fileID: 12489286, guid: 16dc4b51d7b30f74a9fd33417596daa7,
    type: 2}
  m_PrefabInternal: {fileID: 342983797}
  m_GameObject: {fileID: 1042911049}
  m_Enabled: 1
--- !u!92 &1042911052
Behaviour:
  m_ObjectHideFlags: 0
  m_PrefabParentObject: {fileID: 9289286, guid: 16dc4b51d7b30f74a9fd33417596daa7,
    type: 2}
  m_PrefabInternal: {fileID: 342983797}
  m_GameObject: {fileID: 1042911049}
  m_Enabled: 1
--- !u!20 &1042911053
Camera:
  m_ObjectHideFlags: 0
  m_PrefabParentObject: {fileID: 2089286, guid: 16dc4b51d7b30f74a9fd33417596daa7,
    type: 2}
  m_PrefabInternal: {fileID: 342983797}
  m_GameObject: {fileID: 1042911049}
  m_Enabled: 1
  serializedVersion: 2
  m_ClearFlags: 3
  m_BackGroundColor: {r: 0.22745098, g: 0.22352941, b: 0.22745098, a: 0.019607844}
  m_NormalizedViewPortRect:
    serializedVersion: 2
    x: 0
    y: 0
    width: 1
    height: 1
  near clip plane: 0.3
  far clip plane: 1000
  field of view: 60
  orthographic: 0
  orthographic size: 5
  m_Depth: 0
  m_CullingMask:
    serializedVersion: 2
    m_Bits: 2
  m_RenderingPath: -1
  m_TargetTexture: {fileID: 0}
  m_TargetDisplay: 0
  m_TargetEye: 3
  m_HDR: 1
  m_AllowMSAA: 1
  m_AllowDynamicResolution: 0
  m_ForceIntoRT: 0
  m_OcclusionCulling: 1
  m_StereoConvergence: 10
  m_StereoSeparation: 0.022
--- !u!1 &1061801964
GameObject:
  m_ObjectHideFlags: 0
  m_PrefabParentObject: {fileID: 0}
  m_PrefabInternal: {fileID: 0}
  serializedVersion: 5
  m_Component:
  - component: {fileID: 1061801966}
  - component: {fileID: 1061801965}
  m_Layer: 0
  m_Name: Directional light
  m_TagString: Untagged
  m_Icon: {fileID: 0}
  m_NavMeshLayer: 0
  m_StaticEditorFlags: 0
  m_IsActive: 1
--- !u!108 &1061801965
Light:
  m_ObjectHideFlags: 0
  m_PrefabParentObject: {fileID: 0}
  m_PrefabInternal: {fileID: 0}
  m_GameObject: {fileID: 1061801964}
  m_Enabled: 1
  serializedVersion: 8
  m_Type: 1
  m_Color: {r: 1, g: 1, b: 1, a: 1}
  m_Intensity: 1
  m_Range: 10
  m_SpotAngle: 30
  m_CookieSize: 10
  m_Shadows:
    m_Type: 1
    m_Resolution: -1
    m_CustomResolution: -1
    m_Strength: 1
    m_Bias: 0.05
    m_NormalBias: 0.4
    m_NearPlane: 0.2
  m_Cookie: {fileID: 0}
  m_DrawHalo: 0
  m_Flare: {fileID: 0}
  m_RenderMode: 0
  m_CullingMask:
    serializedVersion: 2
    m_Bits: 4294967295
  m_Lightmapping: 1
  m_AreaSize: {x: 1, y: 1}
  m_BounceIntensity: 1
  m_ColorTemperature: 6570
  m_UseColorTemperature: 0
  m_ShadowRadius: 0
  m_ShadowAngle: 0
--- !u!4 &1061801966
Transform:
  m_ObjectHideFlags: 0
  m_PrefabParentObject: {fileID: 0}
  m_PrefabInternal: {fileID: 0}
  m_GameObject: {fileID: 1061801964}
  m_LocalRotation: {x: 0.57087165, y: -0.56922644, z: 0.119610935, w: 0.5794654}
  m_LocalPosition: {x: 0.56189215, y: 3.2153056, z: 0.4232282}
  m_LocalScale: {x: 1, y: 1, z: 1}
  m_Children: []
  m_Father: {fileID: 0}
  m_RootOrder: 2
  m_LocalEulerAnglesHint: {x: 0, y: 0, z: 0}
--- !u!1 &1072217715
GameObject:
  m_ObjectHideFlags: 0
  m_PrefabParentObject: {fileID: 159866, guid: f02a055bd6b8c1343ab2310b439da7d0, type: 2}
  m_PrefabInternal: {fileID: 754809613}
  serializedVersion: 5
  m_Component:
  - component: {fileID: 1072217716}
  m_Layer: 0
  m_Name: B_L_Finger21
  m_TagString: Untagged
  m_Icon: {fileID: 0}
  m_NavMeshLayer: 0
  m_StaticEditorFlags: 0
  m_IsActive: 1
--- !u!4 &1072217716
Transform:
  m_ObjectHideFlags: 0
  m_PrefabParentObject: {fileID: 459874, guid: f02a055bd6b8c1343ab2310b439da7d0, type: 2}
  m_PrefabInternal: {fileID: 754809613}
  m_GameObject: {fileID: 1072217715}
  m_LocalRotation: {x: 0.00000002740004, y: -0.00000025826478, z: -0.11640215, w: 0.9932022}
  m_LocalPosition: {x: -0.08599235, y: 0, z: 0.000000095367426}
  m_LocalScale: {x: 1.0000002, y: 0.9999999, z: 0.9999995}
  m_Children:
  - {fileID: 819471226}
  m_Father: {fileID: 573003195}
  m_RootOrder: 0
  m_LocalEulerAnglesHint: {x: 0, y: 0, z: 0}
--- !u!1 &1074816108
GameObject:
  m_ObjectHideFlags: 0
  m_PrefabParentObject: {fileID: 159900, guid: f02a055bd6b8c1343ab2310b439da7d0, type: 2}
  m_PrefabInternal: {fileID: 754809613}
  serializedVersion: 5
  m_Component:
  - component: {fileID: 1074816109}
  m_Layer: 0
  m_Name: B_R_Finger1
  m_TagString: Untagged
  m_Icon: {fileID: 0}
  m_NavMeshLayer: 0
  m_StaticEditorFlags: 0
  m_IsActive: 1
--- !u!4 &1074816109
Transform:
  m_ObjectHideFlags: 0
  m_PrefabParentObject: {fileID: 459898, guid: f02a055bd6b8c1343ab2310b439da7d0, type: 2}
  m_PrefabInternal: {fileID: 754809613}
  m_GameObject: {fileID: 1074816108}
  m_LocalRotation: {x: 0.000398138, y: -0.000000067071554, z: -0.0000000409515, w: 0.99999994}
  m_LocalPosition: {x: -0.17157646, y: -0.034993093, z: 0.059923045}
  m_LocalScale: {x: 0.99999976, y: 1.0000002, z: 1.0000001}
  m_Children:
  - {fileID: 430609017}
  m_Father: {fileID: 516431967}
  m_RootOrder: 1
  m_LocalEulerAnglesHint: {x: 0, y: 0, z: 0}
--- !u!4 &1076699320
Transform:
  m_ObjectHideFlags: 0
  m_PrefabParentObject: {fileID: 400000, guid: f02a055bd6b8c1343ab2310b439da7d0, type: 2}
  m_PrefabInternal: {fileID: 754809613}
  m_GameObject: {fileID: 421388794}
  m_LocalRotation: {x: 0, y: 0, z: 0, w: 1}
  m_LocalPosition: {x: 0, y: 0, z: -3}
  m_LocalScale: {x: 1, y: 1, z: 1}
  m_Children:
  - {fileID: 90324906}
  - {fileID: 2082867929}
  - {fileID: 875673083}
  m_Father: {fileID: 0}
  m_RootOrder: 0
  m_LocalEulerAnglesHint: {x: 0, y: 0, z: 0}
--- !u!1 &1116778892
GameObject:
  m_ObjectHideFlags: 0
  m_PrefabParentObject: {fileID: 189282, guid: 16dc4b51d7b30f74a9fd33417596daa7, type: 2}
  m_PrefabInternal: {fileID: 342983797}
  serializedVersion: 5
  m_Component:
  - component: {fileID: 1116778894}
  - component: {fileID: 1116778893}
  m_Layer: 1
  m_Name: Controls
  m_TagString: Untagged
  m_Icon: {fileID: 0}
  m_NavMeshLayer: 0
  m_StaticEditorFlags: 0
  m_IsActive: 1
--- !u!212 &1116778893
SpriteRenderer:
  m_ObjectHideFlags: 0
  m_PrefabParentObject: {fileID: 21289286, guid: 16dc4b51d7b30f74a9fd33417596daa7,
    type: 2}
  m_PrefabInternal: {fileID: 342983797}
  m_GameObject: {fileID: 1116778892}
  m_Enabled: 1
  m_CastShadows: 0
  m_ReceiveShadows: 0
  m_DynamicOccludee: 1
  m_MotionVectors: 1
  m_LightProbeUsage: 0
  m_ReflectionProbeUsage: 1
  m_Materials:
  - {fileID: 10754, guid: 0000000000000000f000000000000000, type: 0}
  m_StaticBatchInfo:
    firstSubMesh: 0
    subMeshCount: 0
  m_StaticBatchRoot: {fileID: 0}
  m_ProbeAnchor: {fileID: 0}
  m_LightProbeVolumeOverride: {fileID: 0}
  m_ScaleInLightmap: 1
  m_PreserveUVs: 0
  m_IgnoreNormalsForChartDetection: 0
  m_ImportantGI: 0
  m_StitchLightmapSeams: 0
  m_SelectedEditorRenderState: 0
  m_MinimumChartSize: 4
  m_AutoUVMaxDistance: 0.5
  m_AutoUVMaxAngle: 89
  m_LightmapParameters: {fileID: 0}
  m_SortingLayerID: 0
  m_SortingLayer: 0
  m_SortingOrder: 0
  m_Sprite: {fileID: 21300000, guid: 19663e3fea6f609468d37dbdcd231930, type: 3}
  m_Color: {r: 1, g: 1, b: 1, a: 1}
  m_FlipX: 0
  m_FlipY: 0
  m_DrawMode: 0
  m_Size: {x: 1, y: 1}
  m_AdaptiveModeThreshold: 0.5
  m_SpriteTileMode: 0
  m_WasSpriteAssigned: 1
  m_MaskInteraction: 0
--- !u!4 &1116778894
Transform:
  m_ObjectHideFlags: 0
  m_PrefabParentObject: {fileID: 489282, guid: 16dc4b51d7b30f74a9fd33417596daa7, type: 2}
  m_PrefabInternal: {fileID: 342983797}
  m_GameObject: {fileID: 1116778892}
  m_LocalRotation: {x: -0.00000006415836, y: -0.000000073995004, z: -0.00000018427781,
    w: 1}
  m_LocalPosition: {x: 5.36, y: 2.73, z: 6.39}
  m_LocalScale: {x: 1, y: 1, z: 1}
  m_Children:
  - {fileID: 1724129218}
  - {fileID: 81818578}
  m_Father: {fileID: 1042911050}
  m_RootOrder: 0
  m_LocalEulerAnglesHint: {x: 0, y: 0, z: 0}
--- !u!1 &1138862109
GameObject:
  m_ObjectHideFlags: 0
  m_PrefabParentObject: {fileID: 159846, guid: f02a055bd6b8c1343ab2310b439da7d0, type: 2}
  m_PrefabInternal: {fileID: 754809613}
  serializedVersion: 5
  m_Component:
  - component: {fileID: 1138862110}
  m_Layer: 0
  m_Name: B_L_UpperArm
  m_TagString: Untagged
  m_Icon: {fileID: 0}
  m_NavMeshLayer: 0
  m_StaticEditorFlags: 0
  m_IsActive: 1
--- !u!4 &1138862110
Transform:
  m_ObjectHideFlags: 0
  m_PrefabParentObject: {fileID: 459844, guid: f02a055bd6b8c1343ab2310b439da7d0, type: 2}
  m_PrefabInternal: {fileID: 754809613}
  m_GameObject: {fileID: 1138862109}
  m_LocalRotation: {x: 0.037062705, y: -0.6700438, z: -0.033530645, w: 0.7406371}
  m_LocalPosition: {x: -0.27917758, y: 0.000000015199184, z: 0}
  m_LocalScale: {x: 0.99999976, y: 0.9999998, z: 1.0000004}
  m_Children:
  - {fileID: 1890910321}
  m_Father: {fileID: 219291681}
  m_RootOrder: 0
  m_LocalEulerAnglesHint: {x: 0, y: 0, z: 0}
--- !u!1 &1139671338
GameObject:
  m_ObjectHideFlags: 0
  m_PrefabParentObject: {fileID: 159854, guid: f02a055bd6b8c1343ab2310b439da7d0, type: 2}
  m_PrefabInternal: {fileID: 754809613}
  serializedVersion: 5
  m_Component:
  - component: {fileID: 1139671339}
  m_Layer: 0
  m_Name: B_L_Finger01
  m_TagString: Untagged
  m_Icon: {fileID: 0}
  m_NavMeshLayer: 0
  m_StaticEditorFlags: 0
  m_IsActive: 1
--- !u!4 &1139671339
Transform:
  m_ObjectHideFlags: 0
  m_PrefabParentObject: {fileID: 459862, guid: f02a055bd6b8c1343ab2310b439da7d0, type: 2}
  m_PrefabInternal: {fileID: 754809613}
  m_GameObject: {fileID: 1139671338}
  m_LocalRotation: {x: 0.000000011678515, y: 0.00000004364074, z: -0.11640196, w: 0.9932022}
  m_LocalPosition: {x: -0.061423033, y: 0, z: -0.00000020980835}
  m_LocalScale: {x: 1.0000001, y: 0.9999999, z: 0.99999964}
  m_Children:
  - {fileID: 415963723}
  m_Father: {fileID: 2018958717}
  m_RootOrder: 0
  m_LocalEulerAnglesHint: {x: 0, y: 0, z: 0}
--- !u!1 &1163758394
GameObject:
  m_ObjectHideFlags: 0
  m_PrefabParentObject: {fileID: 159870, guid: f02a055bd6b8c1343ab2310b439da7d0, type: 2}
  m_PrefabInternal: {fileID: 754809613}
  serializedVersion: 5
  m_Component:
  - component: {fileID: 1163758395}
  m_Layer: 0
  m_Name: B_L_Finger3
  m_TagString: Untagged
  m_Icon: {fileID: 0}
  m_NavMeshLayer: 0
  m_StaticEditorFlags: 0
  m_IsActive: 1
--- !u!4 &1163758395
Transform:
  m_ObjectHideFlags: 0
  m_PrefabParentObject: {fileID: 459878, guid: f02a055bd6b8c1343ab2310b439da7d0, type: 2}
  m_PrefabInternal: {fileID: 754809613}
  m_GameObject: {fileID: 1163758394}
  m_LocalRotation: {x: -0.00039871738, y: 0.0000002086177, z: -0.0000000036421106,
    w: 0.99999994}
  m_LocalPosition: {x: -0.17157638, y: -0.0349287, z: 0.020928191}
  m_LocalScale: {x: 1.0000001, y: 1, z: 0.9999999}
  m_Children:
  - {fileID: 707194507}
  m_Father: {fileID: 820790638}
  m_RootOrder: 3
  m_LocalEulerAnglesHint: {x: 0, y: 0, z: 0}
--- !u!1 &1225135986
GameObject:
  m_ObjectHideFlags: 0
  m_PrefabParentObject: {fileID: 173714, guid: f02a055bd6b8c1343ab2310b439da7d0, type: 2}
  m_PrefabInternal: {fileID: 754809613}
  serializedVersion: 5
  m_Component:
  - component: {fileID: 1225135987}
  m_Layer: 0
  m_Name: Root
  m_TagString: Untagged
  m_Icon: {fileID: 0}
  m_NavMeshLayer: 0
  m_StaticEditorFlags: 0
  m_IsActive: 1
--- !u!4 &1225135987
Transform:
  m_ObjectHideFlags: 0
  m_PrefabParentObject: {fileID: 473714, guid: f02a055bd6b8c1343ab2310b439da7d0, type: 2}
  m_PrefabInternal: {fileID: 754809613}
  m_GameObject: {fileID: 1225135986}
  m_LocalRotation: {x: -0.5, y: 0.5, z: 0.5, w: 0.5}
  m_LocalPosition: {x: -0, y: 2.201, z: -0.12}
  m_LocalScale: {x: 1, y: 1, z: 1}
  m_Children:
  - {fileID: 1413992885}
  m_Father: {fileID: 875673083}
  m_RootOrder: 1
  m_LocalEulerAnglesHint: {x: 0, y: 0, z: 0}
--- !u!1 &1266728196
GameObject:
  m_ObjectHideFlags: 0
  m_PrefabParentObject: {fileID: 159832, guid: f02a055bd6b8c1343ab2310b439da7d0, type: 2}
  m_PrefabInternal: {fileID: 754809613}
  serializedVersion: 5
  m_Component:
  - component: {fileID: 1266728197}
  m_Layer: 0
  m_Name: B_R_Thigh
  m_TagString: Untagged
  m_Icon: {fileID: 0}
  m_NavMeshLayer: 0
  m_StaticEditorFlags: 0
  m_IsActive: 1
--- !u!4 &1266728197
Transform:
  m_ObjectHideFlags: 0
  m_PrefabParentObject: {fileID: 459824, guid: f02a055bd6b8c1343ab2310b439da7d0, type: 2}
  m_PrefabInternal: {fileID: 754809613}
  m_GameObject: {fileID: 1266728196}
  m_LocalRotation: {x: -0.04997973, y: 0.99875027, z: 0.0000016922992, w: -0.00000012497962}
  m_LocalPosition: {x: -0, y: -0.00000015109777, z: -0.15105617}
  m_LocalScale: {x: 0.9999999, y: 1, z: 1}
  m_Children:
  - {fileID: 113317761}
  m_Father: {fileID: 536710770}
  m_RootOrder: 1
  m_LocalEulerAnglesHint: {x: 0, y: 0, z: 0}
--- !u!1 &1273763975
GameObject:
  m_ObjectHideFlags: 0
  m_PrefabParentObject: {fileID: 159908, guid: f02a055bd6b8c1343ab2310b439da7d0, type: 2}
  m_PrefabInternal: {fileID: 754809613}
  serializedVersion: 5
  m_Component:
  - component: {fileID: 1273763976}
  m_Layer: 0
  m_Name: B_R_Finger22
  m_TagString: Untagged
  m_Icon: {fileID: 0}
  m_NavMeshLayer: 0
  m_StaticEditorFlags: 0
  m_IsActive: 1
--- !u!4 &1273763976
Transform:
  m_ObjectHideFlags: 0
  m_PrefabParentObject: {fileID: 459908, guid: f02a055bd6b8c1343ab2310b439da7d0, type: 2}
  m_PrefabInternal: {fileID: 754809613}
  m_GameObject: {fileID: 1273763975}
  m_LocalRotation: {x: -0.000000024917053, y: -0.00000000458133, z: -0.11640198, w: 0.9932022}
  m_LocalPosition: {x: -0.08599243, y: -0.000000019073486, z: 0.0000002670288}
  m_LocalScale: {x: 0.99999994, y: 0.99999964, z: 0.9999999}
  m_Children: []
  m_Father: {fileID: 1821818536}
  m_RootOrder: 0
  m_LocalEulerAnglesHint: {x: 0, y: 0, z: 0}
--- !u!1 &1295502012
GameObject:
  m_ObjectHideFlags: 0
  m_PrefabParentObject: {fileID: 159830, guid: f02a055bd6b8c1343ab2310b439da7d0, type: 2}
  m_PrefabInternal: {fileID: 754809613}
  serializedVersion: 5
  m_Component:
  - component: {fileID: 1295502013}
  m_Layer: 0
  m_Name: B_L_Toe0
  m_TagString: Untagged
  m_Icon: {fileID: 0}
  m_NavMeshLayer: 0
  m_StaticEditorFlags: 0
  m_IsActive: 1
--- !u!4 &1295502013
Transform:
  m_ObjectHideFlags: 0
  m_PrefabParentObject: {fileID: 459836, guid: f02a055bd6b8c1343ab2310b439da7d0, type: 2}
  m_PrefabInternal: {fileID: 754809613}
  m_GameObject: {fileID: 1295502012}
  m_LocalRotation: {x: -0.000000019986096, y: 0.000000019986098, z: -0.7071068, w: 0.7071068}
  m_LocalPosition: {x: -0.1708812, y: 0.25053582, z: 0}
  m_LocalScale: {x: 1, y: 1, z: 1}
  m_Children: []
  m_Father: {fileID: 750343595}
  m_RootOrder: 0
  m_LocalEulerAnglesHint: {x: 0, y: 0, z: 0}
--- !u!1 &1300850455
GameObject:
  m_ObjectHideFlags: 0
  m_PrefabParentObject: {fileID: 159838, guid: f02a055bd6b8c1343ab2310b439da7d0, type: 2}
  m_PrefabInternal: {fileID: 754809613}
  serializedVersion: 5
  m_Component:
  - component: {fileID: 1300850456}
  m_Layer: 0
  m_Name: B_R_Toe0
  m_TagString: Untagged
  m_Icon: {fileID: 0}
  m_NavMeshLayer: 0
  m_StaticEditorFlags: 0
  m_IsActive: 1
--- !u!4 &1300850456
Transform:
  m_ObjectHideFlags: 0
  m_PrefabParentObject: {fileID: 459838, guid: f02a055bd6b8c1343ab2310b439da7d0, type: 2}
  m_PrefabInternal: {fileID: 754809613}
  m_GameObject: {fileID: 1300850455}
  m_LocalRotation: {x: 0.000000017086556, y: -0.000000058143495, z: -0.7071068, w: 0.7071068}
  m_LocalPosition: {x: -0.17088115, y: 0.25053588, z: -0.000000009536743}
  m_LocalScale: {x: 1, y: 1, z: 1}
  m_Children: []
  m_Father: {fileID: 1826726362}
  m_RootOrder: 0
  m_LocalEulerAnglesHint: {x: 0, y: 0, z: 0}
--- !u!1 &1396592377
GameObject:
  m_ObjectHideFlags: 0
  m_PrefabParentObject: {fileID: 173710, guid: f02a055bd6b8c1343ab2310b439da7d0, type: 2}
  m_PrefabInternal: {fileID: 754809613}
  serializedVersion: 5
  m_Component:
  - component: {fileID: 1396592378}
  - component: {fileID: 1396592379}
  - component: {fileID: 1396592380}
  m_Layer: 0
  m_Name: Hair2
  m_TagString: Untagged
  m_Icon: {fileID: 0}
  m_NavMeshLayer: 0
  m_StaticEditorFlags: 0
  m_IsActive: 1
--- !u!4 &1396592378
Transform:
  m_ObjectHideFlags: 0
  m_PrefabParentObject: {fileID: 473710, guid: f02a055bd6b8c1343ab2310b439da7d0, type: 2}
  m_PrefabInternal: {fileID: 754809613}
  m_GameObject: {fileID: 1396592377}
  m_LocalRotation: {x: 0, y: -0, z: -0, w: 1}
  m_LocalPosition: {x: 0.2709149, y: 0.00000034340925, z: 0}
  m_LocalScale: {x: 1, y: 1, z: 1}
  m_Children:
  - {fileID: 564125253}
  m_Father: {fileID: 1413992885}
  m_RootOrder: 0
  m_LocalEulerAnglesHint: {x: 0, y: 0, z: 0}
--- !u!54 &1396592379
Rigidbody:
  m_ObjectHideFlags: 0
  m_PrefabParentObject: {fileID: 5473716, guid: f02a055bd6b8c1343ab2310b439da7d0,
    type: 2}
  m_PrefabInternal: {fileID: 754809613}
  m_GameObject: {fileID: 1396592377}
  serializedVersion: 2
  m_Mass: 50
  m_Drag: 1
  m_AngularDrag: 1
  m_UseGravity: 1
  m_IsKinematic: 0
  m_Interpolate: 0
  m_Constraints: 0
  m_CollisionDetection: 1
--- !u!144 &1396592380
CharacterJoint:
  m_ObjectHideFlags: 0
  m_PrefabParentObject: {fileID: 14473716, guid: f02a055bd6b8c1343ab2310b439da7d0,
    type: 2}
  m_PrefabInternal: {fileID: 754809613}
  m_GameObject: {fileID: 1396592377}
  m_ConnectedBody: {fileID: 1413992886}
  m_Anchor: {x: 0, y: 0, z: 0}
  m_Axis: {x: 0, y: 1, z: 0}
  m_AutoConfigureConnectedAnchor: 1
  m_ConnectedAnchor: {x: 0.2709149, y: 0.00000032897117, z: 0.000000040978193}
  serializedVersion: 2
  m_SwingAxis: {x: 0, y: 0, z: 1}
  m_TwistLimitSpring:
    spring: 0
    damper: 0
  m_LowTwistLimit:
    limit: -60
    bounciness: 0
    contactDistance: 0
  m_HighTwistLimit:
    limit: 60
    bounciness: 0
    contactDistance: 0
  m_SwingLimitSpring:
    spring: 0
    damper: 0
  m_Swing1Limit:
    limit: 80
    bounciness: 0
    contactDistance: 0
  m_Swing2Limit:
    limit: 0
    bounciness: 0
    contactDistance: 0
  m_EnableProjection: 0
  m_ProjectionDistance: 0.1
  m_ProjectionAngle: 180
  m_BreakForce: Infinity
  m_BreakTorque: Infinity
  m_EnableCollision: 0
  m_EnablePreprocessing: 1
  m_MassScale: 1
  m_ConnectedMassScale: 1
--- !u!1 &1413992884
GameObject:
  m_ObjectHideFlags: 0
  m_PrefabParentObject: {fileID: 173712, guid: f02a055bd6b8c1343ab2310b439da7d0, type: 2}
  m_PrefabInternal: {fileID: 754809613}
  serializedVersion: 5
  m_Component:
  - component: {fileID: 1413992885}
  - component: {fileID: 1413992886}
  - component: {fileID: 1413992887}
  m_Layer: 0
  m_Name: Hair1
  m_TagString: Untagged
  m_Icon: {fileID: 0}
  m_NavMeshLayer: 0
  m_StaticEditorFlags: 0
  m_IsActive: 1
--- !u!4 &1413992885
Transform:
  m_ObjectHideFlags: 0
  m_PrefabParentObject: {fileID: 473712, guid: f02a055bd6b8c1343ab2310b439da7d0, type: 2}
  m_PrefabInternal: {fileID: 754809613}
  m_GameObject: {fileID: 1413992884}
  m_LocalRotation: {x: -0.00000002825461, y: -0.35550696, z: -0.000000013008905, w: 0.93467367}
  m_LocalPosition: {x: 0.033, y: 0, z: 0.197}
  m_LocalScale: {x: 1, y: 1, z: 1}
  m_Children:
  - {fileID: 1396592378}
  m_Father: {fileID: 1225135987}
  m_RootOrder: 0
  m_LocalEulerAnglesHint: {x: 0, y: 0, z: 0}
--- !u!54 &1413992886
Rigidbody:
  m_ObjectHideFlags: 0
  m_PrefabParentObject: {fileID: 5473718, guid: f02a055bd6b8c1343ab2310b439da7d0,
    type: 2}
  m_PrefabInternal: {fileID: 754809613}
  m_GameObject: {fileID: 1413992884}
  serializedVersion: 2
  m_Mass: 50
  m_Drag: 1
  m_AngularDrag: 1
  m_UseGravity: 1
  m_IsKinematic: 0
  m_Interpolate: 0
  m_Constraints: 0
  m_CollisionDetection: 1
--- !u!144 &1413992887
CharacterJoint:
  m_ObjectHideFlags: 0
  m_PrefabParentObject: {fileID: 14473718, guid: f02a055bd6b8c1343ab2310b439da7d0,
    type: 2}
  m_PrefabInternal: {fileID: 754809613}
  m_GameObject: {fileID: 1413992884}
  m_ConnectedBody: {fileID: 305915627}
  m_Anchor: {x: 0, y: 0, z: 0}
  m_Axis: {x: 0, y: 1, z: 0}
  m_AutoConfigureConnectedAnchor: 1
  m_ConnectedAnchor: {x: -0.32830277, y: -0.15630613, z: -0.00000047406672}
  serializedVersion: 2
  m_SwingAxis: {x: 0, y: 0, z: 1}
  m_TwistLimitSpring:
    spring: 0
    damper: 0
  m_LowTwistLimit:
    limit: -60
    bounciness: 0
    contactDistance: 0
  m_HighTwistLimit:
    limit: 60
    bounciness: 0
    contactDistance: 0
  m_SwingLimitSpring:
    spring: 0
    damper: 0
  m_Swing1Limit:
    limit: 80
    bounciness: 0
    contactDistance: 0
  m_Swing2Limit:
    limit: 0
    bounciness: 0
    contactDistance: 0
  m_EnableProjection: 0
  m_ProjectionDistance: 0.1
  m_ProjectionAngle: 180
  m_BreakForce: Infinity
  m_BreakTorque: Infinity
  m_EnableCollision: 0
  m_EnablePreprocessing: 1
  m_MassScale: 1
  m_ConnectedMassScale: 1
--- !u!1 &1435057490
GameObject:
  m_ObjectHideFlags: 0
  m_PrefabParentObject: {fileID: 173716, guid: f02a055bd6b8c1343ab2310b439da7d0, type: 2}
  m_PrefabInternal: {fileID: 754809613}
  serializedVersion: 5
  m_Component:
  - component: {fileID: 1435057491}
  - component: {fileID: 1435057492}
  m_Layer: 0
  m_Name: Mesh-Hair
  m_TagString: Untagged
  m_Icon: {fileID: 0}
  m_NavMeshLayer: 0
  m_StaticEditorFlags: 0
  m_IsActive: 1
--- !u!4 &1435057491
Transform:
  m_ObjectHideFlags: 0
  m_PrefabParentObject: {fileID: 473716, guid: f02a055bd6b8c1343ab2310b439da7d0, type: 2}
  m_PrefabInternal: {fileID: 754809613}
  m_GameObject: {fileID: 1435057490}
  m_LocalRotation: {x: -0.7071068, y: 0, z: -0, w: 0.7071068}
  m_LocalPosition: {x: 0.00000013304955, y: 0, z: 0}
  m_LocalScale: {x: 1, y: 1, z: 1}
  m_Children: []
  m_Father: {fileID: 875673083}
  m_RootOrder: 0
  m_LocalEulerAnglesHint: {x: 0, y: 0, z: 0}
--- !u!137 &1435057492
SkinnedMeshRenderer:
  m_ObjectHideFlags: 0
  m_PrefabParentObject: {fileID: 13773718, guid: f02a055bd6b8c1343ab2310b439da7d0,
    type: 2}
  m_PrefabInternal: {fileID: 754809613}
  m_GameObject: {fileID: 1435057490}
  m_Enabled: 1
  m_CastShadows: 1
  m_ReceiveShadows: 1
  m_DynamicOccludee: 1
  m_MotionVectors: 1
  m_LightProbeUsage: 0
  m_ReflectionProbeUsage: 1
  m_Materials:
  - {fileID: 2100000, guid: 4c57ae33a72fa6842bafed60410cd603, type: 2}
  m_StaticBatchInfo:
    firstSubMesh: 0
    subMeshCount: 0
  m_StaticBatchRoot: {fileID: 0}
  m_ProbeAnchor: {fileID: 0}
  m_LightProbeVolumeOverride: {fileID: 0}
  m_ScaleInLightmap: 1
  m_PreserveUVs: 0
  m_IgnoreNormalsForChartDetection: 0
  m_ImportantGI: 0
  m_StitchLightmapSeams: 0
  m_SelectedEditorRenderState: 3
  m_MinimumChartSize: 4
  m_AutoUVMaxDistance: 0.5
  m_AutoUVMaxAngle: 89
  m_LightmapParameters: {fileID: 0}
  m_SortingLayerID: 0
  m_SortingLayer: 0
  m_SortingOrder: 0
  serializedVersion: 2
  m_Quality: 0
  m_UpdateWhenOffscreen: 1
  m_SkinnedMotionVectors: 1
  m_Mesh: {fileID: 4300000, guid: c34be88511ae3654d9156bb02af0d783, type: 3}
  m_Bones:
  - {fileID: 1413992885}
  - {fileID: 1396592378}
  - {fileID: 1225135987}
  - {fileID: 564125253}
  m_BlendShapeWeights: []
  m_RootBone: {fileID: 1225135987}
  m_AABB:
    m_Center: {x: 0.44227105, y: 0.00033436716, z: -0.0003478974}
    m_Extent: {x: 0.3853644, y: 0.042263076, z: 0.036362305}
  m_DirtyAABB: 0
--- !u!1 &1529274231
GameObject:
  m_ObjectHideFlags: 0
  m_PrefabParentObject: {fileID: 0}
  m_PrefabInternal: {fileID: 0}
  serializedVersion: 5
  m_Component:
  - component: {fileID: 1529274235}
  - component: {fileID: 1529274234}
  - component: {fileID: 1529274232}
  - component: {fileID: 1529274233}
  m_Layer: 0
  m_Name: Grid
  m_TagString: Untagged
  m_Icon: {fileID: 0}
  m_NavMeshLayer: 0
  m_StaticEditorFlags: 0
  m_IsActive: 1
--- !u!23 &1529274232
MeshRenderer:
  m_ObjectHideFlags: 0
  m_PrefabParentObject: {fileID: 0}
  m_PrefabInternal: {fileID: 0}
  m_GameObject: {fileID: 1529274231}
  m_Enabled: 1
  m_CastShadows: 1
  m_ReceiveShadows: 1
  m_DynamicOccludee: 1
  m_MotionVectors: 1
  m_LightProbeUsage: 0
  m_ReflectionProbeUsage: 1
  m_Materials:
  - {fileID: 2100000, guid: 68b1fdfa59a408c4e912b4f523135bec, type: 2}
  m_StaticBatchInfo:
    firstSubMesh: 0
    subMeshCount: 0
  m_StaticBatchRoot: {fileID: 0}
  m_ProbeAnchor: {fileID: 0}
  m_LightProbeVolumeOverride: {fileID: 0}
  m_ScaleInLightmap: 1
  m_PreserveUVs: 0
  m_IgnoreNormalsForChartDetection: 0
  m_ImportantGI: 0
  m_StitchLightmapSeams: 0
  m_SelectedEditorRenderState: 3
  m_MinimumChartSize: 4
  m_AutoUVMaxDistance: 0.5
  m_AutoUVMaxAngle: 89
  m_LightmapParameters: {fileID: 0}
  m_SortingLayerID: 0
  m_SortingLayer: 0
  m_SortingOrder: 0
--- !u!64 &1529274233
MeshCollider:
  m_ObjectHideFlags: 0
  m_PrefabParentObject: {fileID: 0}
  m_PrefabInternal: {fileID: 0}
  m_GameObject: {fileID: 1529274231}
  m_Material: {fileID: 0}
  m_IsTrigger: 0
  m_Enabled: 1
  serializedVersion: 3
  m_Convex: 0
  m_CookingOptions: 14
  m_SkinWidth: 0.01
  m_Mesh: {fileID: 10210, guid: 0000000000000000e000000000000000, type: 0}
--- !u!33 &1529274234
MeshFilter:
  m_ObjectHideFlags: 0
  m_PrefabParentObject: {fileID: 0}
  m_PrefabInternal: {fileID: 0}
  m_GameObject: {fileID: 1529274231}
  m_Mesh: {fileID: 10210, guid: 0000000000000000e000000000000000, type: 0}
--- !u!4 &1529274235
Transform:
  m_ObjectHideFlags: 0
  m_PrefabParentObject: {fileID: 0}
  m_PrefabInternal: {fileID: 0}
  m_GameObject: {fileID: 1529274231}
  m_LocalRotation: {x: 0.7071068, y: 0, z: 0, w: 0.7071068}
  m_LocalPosition: {x: 0, y: 0, z: 0}
  m_LocalScale: {x: 50, y: 50, z: 50}
  m_Children: []
  m_Father: {fileID: 0}
  m_RootOrder: 3
  m_LocalEulerAnglesHint: {x: 0, y: 0, z: 0}
--- !u!1 &1563958417
GameObject:
  m_ObjectHideFlags: 0
  m_PrefabParentObject: {fileID: 159894, guid: f02a055bd6b8c1343ab2310b439da7d0, type: 2}
  m_PrefabInternal: {fileID: 754809613}
  serializedVersion: 5
  m_Component:
  - component: {fileID: 1563958418}
  m_Layer: 0
  m_Name: B_R_Finger0
  m_TagString: Untagged
  m_Icon: {fileID: 0}
  m_NavMeshLayer: 0
  m_StaticEditorFlags: 0
  m_IsActive: 1
--- !u!4 &1563958418
Transform:
  m_ObjectHideFlags: 0
  m_PrefabParentObject: {fileID: 459892, guid: f02a055bd6b8c1343ab2310b439da7d0, type: 2}
  m_PrefabInternal: {fileID: 754809613}
  m_GameObject: {fileID: 1563958417}
  m_LocalRotation: {x: -0.44854176, y: 0.13317707, z: -0.06779058, w: 0.8811802}
  m_LocalPosition: {x: -0.129822, y: 0.00109169, z: 0.09989943}
  m_LocalScale: {x: 1.0000002, y: 0.9999996, z: 0.9999996}
  m_Children:
  - {fileID: 281830819}
  m_Father: {fileID: 516431967}
  m_RootOrder: 0
  m_LocalEulerAnglesHint: {x: 0, y: 0, z: 0}
--- !u!1 &1576337576
GameObject:
  m_ObjectHideFlags: 0
  m_PrefabParentObject: {fileID: 159876, guid: f02a055bd6b8c1343ab2310b439da7d0, type: 2}
  m_PrefabInternal: {fileID: 754809613}
  serializedVersion: 5
  m_Component:
  - component: {fileID: 1576337577}
  m_Layer: 0
  m_Name: B_L_Finger4
  m_TagString: Untagged
  m_Icon: {fileID: 0}
  m_NavMeshLayer: 0
  m_StaticEditorFlags: 0
  m_IsActive: 1
--- !u!4 &1576337577
Transform:
  m_ObjectHideFlags: 0
  m_PrefabParentObject: {fileID: 459884, guid: f02a055bd6b8c1343ab2310b439da7d0, type: 2}
  m_PrefabInternal: {fileID: 754809613}
  m_GameObject: {fileID: 1576337576}
  m_LocalRotation: {x: -0.00039956573, y: 0.00000021979355, z: -0.0000000036374677,
    w: 0.99999994}
  m_LocalPosition: {x: -0.17157638, y: -0.03489662, z: 0.061353847}
  m_LocalScale: {x: 1.0000002, y: 1.0000002, z: 0.99999994}
  m_Children:
  - {fileID: 1748034705}
  m_Father: {fileID: 820790638}
  m_RootOrder: 4
  m_LocalEulerAnglesHint: {x: 0, y: 0, z: 0}
--- !u!1 &1594346434
GameObject:
  m_ObjectHideFlags: 0
  m_PrefabParentObject: {fileID: 159842, guid: f02a055bd6b8c1343ab2310b439da7d0, type: 2}
  m_PrefabInternal: {fileID: 754809613}
  serializedVersion: 5
  m_Component:
  - component: {fileID: 1594346435}
  m_Layer: 0
  m_Name: B_Spine1
  m_TagString: Untagged
  m_Icon: {fileID: 0}
  m_NavMeshLayer: 0
  m_StaticEditorFlags: 0
  m_IsActive: 1
--- !u!4 &1594346435
Transform:
  m_ObjectHideFlags: 0
  m_PrefabParentObject: {fileID: 459840, guid: f02a055bd6b8c1343ab2310b439da7d0, type: 2}
  m_PrefabInternal: {fileID: 754809613}
  m_GameObject: {fileID: 1594346434}
  m_LocalRotation: {x: -5.641104e-15, y: 0, z: -0, w: 1}
  m_LocalPosition: {x: -0.2152304, y: -0.00023167043, z: -4.216225e-10}
  m_LocalScale: {x: 1, y: 1, z: 1}
  m_Children:
  - {fileID: 219291681}
  - {fileID: 132769491}
  - {fileID: 1698227774}
  m_Father: {fileID: 2039450658}
  m_RootOrder: 0
  m_LocalEulerAnglesHint: {x: 0, y: 0, z: 0}
--- !u!1 &1661504175
GameObject:
  m_ObjectHideFlags: 0
  m_PrefabParentObject: {fileID: 159914, guid: f02a055bd6b8c1343ab2310b439da7d0, type: 2}
  m_PrefabInternal: {fileID: 754809613}
  serializedVersion: 5
  m_Component:
  - component: {fileID: 1661504176}
  m_Layer: 0
  m_Name: B_R_Finger32
  m_TagString: Untagged
  m_Icon: {fileID: 0}
  m_NavMeshLayer: 0
  m_StaticEditorFlags: 0
  m_IsActive: 1
--- !u!4 &1661504176
Transform:
  m_ObjectHideFlags: 0
  m_PrefabParentObject: {fileID: 459914, guid: f02a055bd6b8c1343ab2310b439da7d0, type: 2}
  m_PrefabInternal: {fileID: 754809613}
  m_GameObject: {fileID: 1661504175}
  m_LocalRotation: {x: 0.0000002643167, y: -9.712722e-10, z: -0.116402, w: 0.9932022}
  m_LocalPosition: {x: -0.073707886, y: -0.00000019073485, z: -0.00000017166137}
  m_LocalScale: {x: 1.0000001, y: 1, z: 1.0000005}
  m_Children: []
  m_Father: {fileID: 360690833}
  m_RootOrder: 0
  m_LocalEulerAnglesHint: {x: 0, y: 0, z: 0}
--- !u!1 &1698227773
GameObject:
  m_ObjectHideFlags: 0
  m_PrefabParentObject: {fileID: 159886, guid: f02a055bd6b8c1343ab2310b439da7d0, type: 2}
  m_PrefabInternal: {fileID: 754809613}
  serializedVersion: 5
  m_Component:
  - component: {fileID: 1698227774}
  m_Layer: 0
  m_Name: B_R_Clavicle
  m_TagString: Untagged
  m_Icon: {fileID: 0}
  m_NavMeshLayer: 0
  m_StaticEditorFlags: 0
  m_IsActive: 1
--- !u!4 &1698227774
Transform:
  m_ObjectHideFlags: 0
  m_PrefabParentObject: {fileID: 459852, guid: f02a055bd6b8c1343ab2310b439da7d0, type: 2}
  m_PrefabInternal: {fileID: 754809613}
  m_GameObject: {fileID: 1698227773}
  m_LocalRotation: {x: 0.70710677, y: 0.00028147915, z: 0.70710677, w: -0.00028147915}
  m_LocalPosition: {x: -0.29094252, y: 0.00000010505318, z: -0.057713855}
  m_LocalScale: {x: 1, y: 1, z: 1}
  m_Children:
  - {fileID: 2021241144}
  m_Father: {fileID: 1594346435}
  m_RootOrder: 2
  m_LocalEulerAnglesHint: {x: 0, y: 0, z: 0}
--- !u!1 &1724129217
GameObject:
  m_ObjectHideFlags: 0
  m_PrefabParentObject: {fileID: 185252, guid: 16dc4b51d7b30f74a9fd33417596daa7, type: 2}
  m_PrefabInternal: {fileID: 342983797}
  serializedVersion: 5
  m_Component:
  - component: {fileID: 1724129218}
  - component: {fileID: 1724129219}
  m_Layer: 1
  m_Name: Controller
  m_TagString: Untagged
  m_Icon: {fileID: 0}
  m_NavMeshLayer: 0
  m_StaticEditorFlags: 0
  m_IsActive: 1
--- !u!4 &1724129218
Transform:
  m_ObjectHideFlags: 0
  m_PrefabParentObject: {fileID: 485252, guid: 16dc4b51d7b30f74a9fd33417596daa7, type: 2}
  m_PrefabInternal: {fileID: 342983797}
  m_GameObject: {fileID: 1724129217}
  m_LocalRotation: {x: 0, y: 0, z: 0, w: 1}
  m_LocalPosition: {x: -9.9, y: -5.19, z: 0}
  m_LocalScale: {x: 1, y: 1, z: 1}
  m_Children: []
  m_Father: {fileID: 1116778894}
  m_RootOrder: 0
  m_LocalEulerAnglesHint: {x: 0, y: 0, z: 0}
--- !u!212 &1724129219
SpriteRenderer:
  m_ObjectHideFlags: 0
  m_PrefabParentObject: {fileID: 21285252, guid: 16dc4b51d7b30f74a9fd33417596daa7,
    type: 2}
  m_PrefabInternal: {fileID: 342983797}
  m_GameObject: {fileID: 1724129217}
  m_Enabled: 1
  m_CastShadows: 0
  m_ReceiveShadows: 0
  m_DynamicOccludee: 1
  m_MotionVectors: 1
  m_LightProbeUsage: 0
  m_ReflectionProbeUsage: 1
  m_Materials:
  - {fileID: 10754, guid: 0000000000000000f000000000000000, type: 0}
  m_StaticBatchInfo:
    firstSubMesh: 0
    subMeshCount: 0
  m_StaticBatchRoot: {fileID: 0}
  m_ProbeAnchor: {fileID: 0}
  m_LightProbeVolumeOverride: {fileID: 0}
  m_ScaleInLightmap: 1
  m_PreserveUVs: 0
  m_IgnoreNormalsForChartDetection: 0
  m_ImportantGI: 0
  m_StitchLightmapSeams: 0
  m_SelectedEditorRenderState: 0
  m_MinimumChartSize: 4
  m_AutoUVMaxDistance: 0.5
  m_AutoUVMaxAngle: 89
  m_LightmapParameters: {fileID: 0}
  m_SortingLayerID: 0
  m_SortingLayer: 0
  m_SortingOrder: 0
  m_Sprite: {fileID: 21300000, guid: a89b87919aade4c498f4e0df342ab278, type: 3}
  m_Color: {r: 1, g: 1, b: 1, a: 1}
  m_FlipX: 0
  m_FlipY: 0
  m_DrawMode: 0
  m_Size: {x: 1, y: 1}
  m_AdaptiveModeThreshold: 0.5
  m_SpriteTileMode: 0
  m_WasSpriteAssigned: 1
  m_MaskInteraction: 0
--- !u!1 &1748034704
GameObject:
  m_ObjectHideFlags: 0
  m_PrefabParentObject: {fileID: 159878, guid: f02a055bd6b8c1343ab2310b439da7d0, type: 2}
  m_PrefabInternal: {fileID: 754809613}
  serializedVersion: 5
  m_Component:
  - component: {fileID: 1748034705}
  m_Layer: 0
  m_Name: B_L_Finger41
  m_TagString: Untagged
  m_Icon: {fileID: 0}
  m_NavMeshLayer: 0
  m_StaticEditorFlags: 0
  m_IsActive: 1
--- !u!4 &1748034705
Transform:
  m_ObjectHideFlags: 0
  m_PrefabParentObject: {fileID: 459886, guid: f02a055bd6b8c1343ab2310b439da7d0, type: 2}
  m_PrefabInternal: {fileID: 754809613}
  m_GameObject: {fileID: 1748034704}
  m_LocalRotation: {x: 0.000000098168655, y: 0.00000033356727, z: -0.11640229, w: 0.99320215}
  m_LocalPosition: {x: -0.06142326, y: 0.00000022888183, z: 0.00000012397766}
  m_LocalScale: {x: 0.99999976, y: 0.99999994, z: 0.99999964}
  m_Children:
  - {fileID: 976089109}
  m_Father: {fileID: 1576337577}
  m_RootOrder: 0
  m_LocalEulerAnglesHint: {x: 0, y: 0, z: 0}
--- !u!1 &1821818535
GameObject:
  m_ObjectHideFlags: 0
  m_PrefabParentObject: {fileID: 159906, guid: f02a055bd6b8c1343ab2310b439da7d0, type: 2}
  m_PrefabInternal: {fileID: 754809613}
  serializedVersion: 5
  m_Component:
  - component: {fileID: 1821818536}
  m_Layer: 0
  m_Name: B_R_Finger21
  m_TagString: Untagged
  m_Icon: {fileID: 0}
  m_NavMeshLayer: 0
  m_StaticEditorFlags: 0
  m_IsActive: 1
--- !u!4 &1821818536
Transform:
  m_ObjectHideFlags: 0
  m_PrefabParentObject: {fileID: 459906, guid: f02a055bd6b8c1343ab2310b439da7d0, type: 2}
  m_PrefabInternal: {fileID: 754809613}
  m_GameObject: {fileID: 1821818535}
  m_LocalRotation: {x: -0.00000001491465, y: 0.00000007676373, z: -0.116402075, w: 0.9932022}
  m_LocalPosition: {x: -0.08599235, y: -0.000000114440915, z: -0.00000030517577}
  m_LocalScale: {x: 1, y: 1.0000004, z: 1.0000002}
  m_Children:
  - {fileID: 1273763976}
  m_Father: {fileID: 69557394}
  m_RootOrder: 0
  m_LocalEulerAnglesHint: {x: 0, y: 0, z: 0}
--- !u!1 &1826726361
GameObject:
  m_ObjectHideFlags: 0
  m_PrefabParentObject: {fileID: 159836, guid: f02a055bd6b8c1343ab2310b439da7d0, type: 2}
  m_PrefabInternal: {fileID: 754809613}
  serializedVersion: 5
  m_Component:
  - component: {fileID: 1826726362}
  m_Layer: 0
  m_Name: B_R_Foot
  m_TagString: Untagged
  m_Icon: {fileID: 0}
  m_NavMeshLayer: 0
  m_StaticEditorFlags: 0
  m_IsActive: 1
--- !u!4 &1826726362
Transform:
  m_ObjectHideFlags: 0
  m_PrefabParentObject: {fileID: 459834, guid: f02a055bd6b8c1343ab2310b439da7d0, type: 2}
  m_PrefabInternal: {fileID: 754809613}
  m_GameObject: {fileID: 1826726361}
  m_LocalRotation: {x: 0.00000002681059, y: -0.00000004510774, z: -0.049979202, w: 0.99875027}
  m_LocalPosition: {x: -0.55950487, y: -0.0000000011920929, z: 0.000000028610229}
  m_LocalScale: {x: 0.9999998, y: 0.9999997, z: 1}
  m_Children:
  - {fileID: 1300850456}
  m_Father: {fileID: 113317761}
  m_RootOrder: 0
  m_LocalEulerAnglesHint: {x: 0, y: 0, z: 0}
--- !u!1 &1827462010
GameObject:
  m_ObjectHideFlags: 0
  m_PrefabParentObject: {fileID: 159824, guid: f02a055bd6b8c1343ab2310b439da7d0, type: 2}
  m_PrefabInternal: {fileID: 754809613}
  serializedVersion: 5
  m_Component:
  - component: {fileID: 1827462011}
  m_Layer: 0
  m_Name: B_L_Thigh
  m_TagString: Untagged
  m_Icon: {fileID: 0}
  m_NavMeshLayer: 0
  m_StaticEditorFlags: 0
  m_IsActive: 1
--- !u!4 &1827462011
Transform:
  m_ObjectHideFlags: 0
  m_PrefabParentObject: {fileID: 459820, guid: f02a055bd6b8c1343ab2310b439da7d0, type: 2}
  m_PrefabInternal: {fileID: 754809613}
  m_GameObject: {fileID: 1827462010}
  m_LocalRotation: {x: -0.04997973, y: 0.99875027, z: -0.000004234586, w: 0.00000012082359}
  m_LocalPosition: {x: -0, y: 0.00000026673078, z: 0.15105617}
  m_LocalScale: {x: 0.9999999, y: 1, z: 1}
  m_Children:
  - {fileID: 575285931}
  m_Father: {fileID: 536710770}
  m_RootOrder: 0
  m_LocalEulerAnglesHint: {x: 0, y: 0, z: 0}
--- !u!1 &1862236459
GameObject:
  m_ObjectHideFlags: 0
  m_PrefabParentObject: {fileID: 159898, guid: f02a055bd6b8c1343ab2310b439da7d0, type: 2}
  m_PrefabInternal: {fileID: 754809613}
  serializedVersion: 5
  m_Component:
  - component: {fileID: 1862236460}
  m_Layer: 0
  m_Name: B_R_Finger02
  m_TagString: Untagged
  m_Icon: {fileID: 0}
  m_NavMeshLayer: 0
  m_StaticEditorFlags: 0
  m_IsActive: 1
--- !u!4 &1862236460
Transform:
  m_ObjectHideFlags: 0
  m_PrefabParentObject: {fileID: 459896, guid: f02a055bd6b8c1343ab2310b439da7d0, type: 2}
  m_PrefabInternal: {fileID: 754809613}
  m_GameObject: {fileID: 1862236459}
  m_LocalRotation: {x: 0.000000033356088, y: -0.00000013143601, z: -0.116402015, w: 0.9932022}
  m_LocalPosition: {x: -0.061423108, y: 0.000000057220458, z: 0.0000002670288}
  m_LocalScale: {x: 1.0000004, y: 1.0000004, z: 1.0000001}
  m_Children: []
  m_Father: {fileID: 281830819}
  m_RootOrder: 0
  m_LocalEulerAnglesHint: {x: 0, y: 0, z: 0}
--- !u!1 &1890910320
GameObject:
  m_ObjectHideFlags: 0
  m_PrefabParentObject: {fileID: 159848, guid: f02a055bd6b8c1343ab2310b439da7d0, type: 2}
  m_PrefabInternal: {fileID: 754809613}
  serializedVersion: 5
  m_Component:
  - component: {fileID: 1890910321}
  m_Layer: 0
  m_Name: B_L_Forearm
  m_TagString: Untagged
  m_Icon: {fileID: 0}
  m_NavMeshLayer: 0
  m_StaticEditorFlags: 0
  m_IsActive: 1
--- !u!4 &1890910321
Transform:
  m_ObjectHideFlags: 0
  m_PrefabParentObject: {fileID: 459856, guid: f02a055bd6b8c1343ab2310b439da7d0, type: 2}
  m_PrefabInternal: {fileID: 754809613}
  m_GameObject: {fileID: 1890910320}
  m_LocalRotation: {x: 0.000000027604836, y: 0.000000032721672, z: 0.09983333, w: 0.9950042}
  m_LocalPosition: {x: -0.37960723, y: -0.000000057220458, z: 0.00000015258789}
  m_LocalScale: {x: 1.0000001, y: 1.0000001, z: 0.9999997}
  m_Children:
  - {fileID: 820790638}
  m_Father: {fileID: 1138862110}
  m_RootOrder: 0
  m_LocalEulerAnglesHint: {x: 0, y: 0, z: 0}
--- !u!1 &1940083601
GameObject:
  m_ObjectHideFlags: 0
  m_PrefabParentObject: {fileID: 159918, guid: f02a055bd6b8c1343ab2310b439da7d0, type: 2}
  m_PrefabInternal: {fileID: 754809613}
  serializedVersion: 5
  m_Component:
  - component: {fileID: 1940083602}
  m_Layer: 0
  m_Name: B_R_Finger41
  m_TagString: Untagged
  m_Icon: {fileID: 0}
  m_NavMeshLayer: 0
  m_StaticEditorFlags: 0
  m_IsActive: 1
--- !u!4 &1940083602
Transform:
  m_ObjectHideFlags: 0
  m_PrefabParentObject: {fileID: 459918, guid: f02a055bd6b8c1343ab2310b439da7d0, type: 2}
  m_PrefabInternal: {fileID: 754809613}
  m_GameObject: {fileID: 1940083601}
  m_LocalRotation: {x: -0.000000037203037, y: -0.00000008940951, z: -0.11640201, w: 0.9932022}
  m_LocalPosition: {x: -0.061422653, y: 0.000000114440915, z: 0.00000031948088}
  m_LocalScale: {x: 1.0000004, y: 1, z: 1.0000002}
  m_Children:
  - {fileID: 6216686}
  m_Father: {fileID: 1992832833}
  m_RootOrder: 0
  m_LocalEulerAnglesHint: {x: 0, y: 0, z: 0}
--- !u!1 &1992832832
GameObject:
  m_ObjectHideFlags: 0
  m_PrefabParentObject: {fileID: 159916, guid: f02a055bd6b8c1343ab2310b439da7d0, type: 2}
  m_PrefabInternal: {fileID: 754809613}
  serializedVersion: 5
  m_Component:
  - component: {fileID: 1992832833}
  m_Layer: 0
  m_Name: B_R_Finger4
  m_TagString: Untagged
  m_Icon: {fileID: 0}
  m_NavMeshLayer: 0
  m_StaticEditorFlags: 0
  m_IsActive: 1
--- !u!4 &1992832833
Transform:
  m_ObjectHideFlags: 0
  m_PrefabParentObject: {fileID: 459916, guid: f02a055bd6b8c1343ab2310b439da7d0, type: 2}
  m_PrefabInternal: {fileID: 754809613}
  m_GameObject: {fileID: 1992832832}
  m_LocalRotation: {x: 0.00039836214, y: -0.000000048407983, z: 0.00000005217334,
    w: 0.99999994}
  m_LocalPosition: {x: -0.17157677, y: -0.03489704, z: -0.061354097}
  m_LocalScale: {x: 1.0000002, y: 1.0000011, z: 1.0000011}
  m_Children:
  - {fileID: 1940083602}
  m_Father: {fileID: 516431967}
  m_RootOrder: 4
  m_LocalEulerAnglesHint: {x: 0, y: 0, z: 0}
--- !u!1 &2018958716
GameObject:
  m_ObjectHideFlags: 0
  m_PrefabParentObject: {fileID: 159852, guid: f02a055bd6b8c1343ab2310b439da7d0, type: 2}
  m_PrefabInternal: {fileID: 754809613}
  serializedVersion: 5
  m_Component:
  - component: {fileID: 2018958717}
  m_Layer: 0
  m_Name: B_L_Finger0
  m_TagString: Untagged
  m_Icon: {fileID: 0}
  m_NavMeshLayer: 0
  m_StaticEditorFlags: 0
  m_IsActive: 1
--- !u!4 &2018958717
Transform:
  m_ObjectHideFlags: 0
  m_PrefabParentObject: {fileID: 459860, guid: f02a055bd6b8c1343ab2310b439da7d0, type: 2}
  m_PrefabInternal: {fileID: 754809613}
  m_GameObject: {fileID: 2018958716}
  m_LocalRotation: {x: 0.44854182, y: -0.13317716, z: -0.06779064, w: 0.8811802}
  m_LocalPosition: {x: -0.129822, y: 0.00109169, z: -0.09989931}
  m_LocalScale: {x: 1.0000005, y: 0.99999976, z: 1}
  m_Children:
  - {fileID: 1139671339}
  m_Father: {fileID: 820790638}
  m_RootOrder: 0
  m_LocalEulerAnglesHint: {x: 0, y: 0, z: 0}
--- !u!1 &2021241143
GameObject:
  m_ObjectHideFlags: 0
  m_PrefabParentObject: {fileID: 159888, guid: f02a055bd6b8c1343ab2310b439da7d0, type: 2}
  m_PrefabInternal: {fileID: 754809613}
  serializedVersion: 5
  m_Component:
  - component: {fileID: 2021241144}
  m_Layer: 0
  m_Name: B_R_UpperArm
  m_TagString: Untagged
  m_Icon: {fileID: 0}
  m_NavMeshLayer: 0
  m_StaticEditorFlags: 0
  m_IsActive: 1
--- !u!4 &2021241144
Transform:
  m_ObjectHideFlags: 0
  m_PrefabParentObject: {fileID: 459842, guid: f02a055bd6b8c1343ab2310b439da7d0, type: 2}
  m_PrefabInternal: {fileID: 754809613}
  m_GameObject: {fileID: 2021241143}
  m_LocalRotation: {x: -0.037064075, y: 0.6700438, z: -0.033529013, w: 0.7406371}
  m_LocalPosition: {x: -0.2791774, y: 0.0000001230836, z: -0.00000015258789}
  m_LocalScale: {x: 0.9999998, y: 1.0000001, z: 0.9999997}
  m_Children:
  - {fileID: 191571086}
  m_Father: {fileID: 1698227774}
  m_RootOrder: 0
  m_LocalEulerAnglesHint: {x: 0, y: 0, z: 0}
--- !u!1 &2039450657
GameObject:
  m_ObjectHideFlags: 0
  m_PrefabParentObject: {fileID: 159840, guid: f02a055bd6b8c1343ab2310b439da7d0, type: 2}
  m_PrefabInternal: {fileID: 754809613}
  serializedVersion: 5
  m_Component:
  - component: {fileID: 2039450658}
  m_Layer: 0
  m_Name: B_Spine
  m_TagString: Untagged
  m_Icon: {fileID: 0}
  m_NavMeshLayer: 0
  m_StaticEditorFlags: 0
  m_IsActive: 1
--- !u!4 &2039450658
Transform:
  m_ObjectHideFlags: 0
  m_PrefabParentObject: {fileID: 459826, guid: f02a055bd6b8c1343ab2310b439da7d0, type: 2}
  m_PrefabInternal: {fileID: 754809613}
  m_GameObject: {fileID: 2039450657}
  m_LocalRotation: {x: -0.0000016033553, y: -0.000000021770637, z: -0.00039744377,
    w: 0.99999994}
  m_LocalPosition: {x: -0.12868606, y: -0.00017150372, z: -0.0000000053875464}
  m_LocalScale: {x: 1, y: 1, z: 1}
  m_Children:
  - {fileID: 1594346435}
  m_Father: {fileID: 536710770}
  m_RootOrder: 2
  m_LocalEulerAnglesHint: {x: 0, y: 0, z: 0}
--- !u!1 &2056460966
GameObject:
  m_ObjectHideFlags: 0
  m_PrefabParentObject: {fileID: 189288, guid: 16dc4b51d7b30f74a9fd33417596daa7, type: 2}
  m_PrefabInternal: {fileID: 342983797}
  serializedVersion: 5
  m_Component:
  - component: {fileID: 2056460972}
  - component: {fileID: 2056460971}
  - component: {fileID: 2056460970}
  - component: {fileID: 2056460969}
  - component: {fileID: 2056460968}
  - component: {fileID: 2056460967}
  m_Layer: 0
  m_Name: Main Camera
  m_TagString: MainCamera
  m_Icon: {fileID: 0}
  m_NavMeshLayer: 0
  m_StaticEditorFlags: 0
  m_IsActive: 1
--- !u!114 &2056460967
MonoBehaviour:
  m_ObjectHideFlags: 0
  m_PrefabParentObject: {fileID: 11481238, guid: 16dc4b51d7b30f74a9fd33417596daa7,
    type: 2}
  m_PrefabInternal: {fileID: 342983797}
  m_GameObject: {fileID: 2056460966}
  m_Enabled: 1
  m_EditorHideFlags: 0
  m_Script: {fileID: 11500000, guid: 02c58f72133423b47954dba9aa3ef79e, type: 3}
  m_Name: 
  m_EditorClassIdentifier: 
  LockX: 0
  offSetZ: -6
  LockY: 1
  LockZ: 0
  useSmoothing: 1
  target: {fileID: 1076699320}
  hudElements: {fileID: 1116778892}
--- !u!81 &2056460968
AudioListener:
  m_ObjectHideFlags: 0
  m_PrefabParentObject: {fileID: 8189288, guid: 16dc4b51d7b30f74a9fd33417596daa7,
    type: 2}
  m_PrefabInternal: {fileID: 342983797}
  m_GameObject: {fileID: 2056460966}
  m_Enabled: 1
--- !u!124 &2056460969
Behaviour:
  m_ObjectHideFlags: 0
  m_PrefabParentObject: {fileID: 12489288, guid: 16dc4b51d7b30f74a9fd33417596daa7,
    type: 2}
  m_PrefabInternal: {fileID: 342983797}
  m_GameObject: {fileID: 2056460966}
  m_Enabled: 1
--- !u!92 &2056460970
Behaviour:
  m_ObjectHideFlags: 0
  m_PrefabParentObject: {fileID: 9289288, guid: 16dc4b51d7b30f74a9fd33417596daa7,
    type: 2}
  m_PrefabInternal: {fileID: 342983797}
  m_GameObject: {fileID: 2056460966}
  m_Enabled: 1
--- !u!20 &2056460971
Camera:
  m_ObjectHideFlags: 0
  m_PrefabParentObject: {fileID: 2089288, guid: 16dc4b51d7b30f74a9fd33417596daa7,
    type: 2}
  m_PrefabInternal: {fileID: 342983797}
  m_GameObject: {fileID: 2056460966}
  m_Enabled: 1
  serializedVersion: 2
  m_ClearFlags: 1
  m_BackGroundColor: {r: 1, g: 1, b: 1, a: 0.019607844}
  m_NormalizedViewPortRect:
    serializedVersion: 2
    x: 0
    y: 0
    width: 1
    height: 1
  near clip plane: 0.3
  far clip plane: 1000
  field of view: 60
  orthographic: 0
  orthographic size: 5
  m_Depth: -1
  m_CullingMask:
    serializedVersion: 2
    m_Bits: 4294967295
  m_RenderingPath: -1
  m_TargetTexture: {fileID: 0}
  m_TargetDisplay: 0
  m_TargetEye: 3
  m_HDR: 1
  m_AllowMSAA: 1
  m_AllowDynamicResolution: 0
  m_ForceIntoRT: 0
  m_OcclusionCulling: 1
  m_StereoConvergence: 10
  m_StereoSeparation: 0.022
--- !u!4 &2056460972
Transform:
  m_ObjectHideFlags: 0
  m_PrefabParentObject: {fileID: 489288, guid: 16dc4b51d7b30f74a9fd33417596daa7, type: 2}
  m_PrefabInternal: {fileID: 342983797}
  m_GameObject: {fileID: 2056460966}
  m_LocalRotation: {x: -0.38268334, y: 0.00000025696957, z: -0.00000010644025, w: -0.92387956}
  m_LocalPosition: {x: 0, y: 7.03, z: -7.66}
  m_LocalScale: {x: 1, y: 1, z: 1}
  m_Children:
  - {fileID: 1042911050}
  m_Father: {fileID: 0}
  m_RootOrder: 1
  m_LocalEulerAnglesHint: {x: 0, y: 0, z: 0}
--- !u!1 &2058889068
GameObject:
  m_ObjectHideFlags: 0
  m_PrefabParentObject: {fileID: 159860, guid: f02a055bd6b8c1343ab2310b439da7d0, type: 2}
  m_PrefabInternal: {fileID: 754809613}
  serializedVersion: 5
  m_Component:
  - component: {fileID: 2058889069}
  m_Layer: 0
  m_Name: B_L_Finger11
  m_TagString: Untagged
  m_Icon: {fileID: 0}
  m_NavMeshLayer: 0
  m_StaticEditorFlags: 0
  m_IsActive: 1
--- !u!4 &2058889069
Transform:
  m_ObjectHideFlags: 0
  m_PrefabParentObject: {fileID: 459868, guid: f02a055bd6b8c1343ab2310b439da7d0, type: 2}
  m_PrefabInternal: {fileID: 754809613}
  m_GameObject: {fileID: 2058889068}
  m_LocalRotation: {x: 0.00000003037975, y: -0.000000044819146, z: -0.11640206, w: 0.9932022}
  m_LocalPosition: {x: -0.073707886, y: -0.000000038146972, z: 0.00000015258789}
  m_LocalScale: {x: 0.9999997, y: 0.9999997, z: 1}
  m_Children:
  - {fileID: 185212576}
  m_Father: {fileID: 14222703}
  m_RootOrder: 0
  m_LocalEulerAnglesHint: {x: 0, y: 0, z: 0}
--- !u!1 &2082867928
GameObject:
  m_ObjectHideFlags: 0
  m_PrefabParentObject: {fileID: 159816, guid: f02a055bd6b8c1343ab2310b439da7d0, type: 2}
  m_PrefabInternal: {fileID: 754809613}
  serializedVersion: 5
  m_Component:
  - component: {fileID: 2082867929}
  m_Layer: 0
  m_Name: Motion
  m_TagString: Untagged
  m_Icon: {fileID: 0}
  m_NavMeshLayer: 0
  m_StaticEditorFlags: 0
  m_IsActive: 1
--- !u!4 &2082867929
Transform:
  m_ObjectHideFlags: 0
  m_PrefabParentObject: {fileID: 459818, guid: f02a055bd6b8c1343ab2310b439da7d0, type: 2}
  m_PrefabInternal: {fileID: 754809613}
  m_GameObject: {fileID: 2082867928}
  m_LocalRotation: {x: -0.5, y: 0.5, z: 0.5, w: 0.5}
  m_LocalPosition: {x: -0.0000000099258495, y: 0, z: -0.0017328988}
  m_LocalScale: {x: 1, y: 1, z: 1}
  m_Children:
  - {fileID: 536710770}
  m_Father: {fileID: 1076699320}
  m_RootOrder: 1
  m_LocalEulerAnglesHint: {x: 0, y: 0, z: 0}
--- !u!1 &2083078773
GameObject:
  m_ObjectHideFlags: 0
  m_PrefabParentObject: {fileID: 159910, guid: f02a055bd6b8c1343ab2310b439da7d0, type: 2}
  m_PrefabInternal: {fileID: 754809613}
  serializedVersion: 5
  m_Component:
  - component: {fileID: 2083078774}
  m_Layer: 0
  m_Name: B_R_Finger3
  m_TagString: Untagged
  m_Icon: {fileID: 0}
  m_NavMeshLayer: 0
  m_StaticEditorFlags: 0
  m_IsActive: 1
--- !u!4 &2083078774
Transform:
  m_ObjectHideFlags: 0
  m_PrefabParentObject: {fileID: 459910, guid: f02a055bd6b8c1343ab2310b439da7d0, type: 2}
  m_PrefabInternal: {fileID: 754809613}
  m_GameObject: {fileID: 2083078773}
  m_LocalRotation: {x: 0.00039812917, y: 0.000000014904128, z: 0.0000000074446485,
    w: 0.99999994}
  m_LocalPosition: {x: -0.17157677, y: -0.034928665, z: -0.020928307}
  m_LocalScale: {x: 0.9999999, y: 1.0000002, z: 1.0000002}
  m_Children:
  - {fileID: 360690833}
  m_Father: {fileID: 516431967}
  m_RootOrder: 3
  m_LocalEulerAnglesHint: {x: 0, y: 0, z: 0}
--- !u!1 &2136874021
GameObject:
  m_ObjectHideFlags: 0
  m_PrefabParentObject: {fileID: 159874, guid: f02a055bd6b8c1343ab2310b439da7d0, type: 2}
  m_PrefabInternal: {fileID: 754809613}
  serializedVersion: 5
  m_Component:
  - component: {fileID: 2136874022}
  m_Layer: 0
  m_Name: B_L_Finger32
  m_TagString: Untagged
  m_Icon: {fileID: 0}
  m_NavMeshLayer: 0
  m_StaticEditorFlags: 0
  m_IsActive: 1
--- !u!4 &2136874022
Transform:
  m_ObjectHideFlags: 0
  m_PrefabParentObject: {fileID: 459882, guid: f02a055bd6b8c1343ab2310b439da7d0, type: 2}
  m_PrefabInternal: {fileID: 754809613}
  m_GameObject: {fileID: 2136874021}
  m_LocalRotation: {x: -0.00000022578263, y: 0.0000002177516, z: -0.11640201, w: 0.9932022}
  m_LocalPosition: {x: -0.073707655, y: 0.00000020980835, z: 0.000000038146972}
  m_LocalScale: {x: 0.99999994, y: 0.99999976, z: 1.0000002}
  m_Children: []
  m_Father: {fileID: 707194507}
  m_RootOrder: 0
  m_LocalEulerAnglesHint: {x: 0, y: 0, z: 0}
